<?xml version="1.0" encoding="utf-8"?>
<!-- Generator: Adobe Illustrator 21.0.2, SVG Export Plug-In . SVG Version: 6.00 Build 0)  -->
<svg version="1.1" id="Layer_1" xmlns="http://www.w3.org/2000/svg" xmlns:xlink="http://www.w3.org/1999/xlink" x="0px" y="0px"
	 viewBox="0 0 160 140" style="enable-background:new 0 0 160 140;" xml:space="preserve">
<style type="text/css">
	.st0{fill:#FFFFFF;}
	.st1{opacity:8.000000e-02;}
</style>
<g>
	<g>
		<g>
			<path class="st0" d="M87,34c2.7-0.4,5.4,0,7.5,0.6c1.5-1.9,2.6-4.8,2.4-7.5c-0.2-2.4-3.9-4-4.9-6.8c-0.8-2.2-1.1-4.6-0.7-6.7
				c0.2-0.9,1.5-1.7,1.1-2.5c-2-0.3-6.5,0-10.1,0c-0.9,1.7-1.6,2.6-1.7,4.4c-0.2,7.7,9.5,9.3,6.7,17.4"/>
		</g>
		<g>
			<path class="st0" d="M62.2,33.5c3.5-0.1,6.4-0.2,9,0.3c0.9,0.1,1.8,0.4,2.6,0.7c5-8.1-7-11.3-5.9-19.8c0.2-1.3,1.2-2.2,1.5-3.8
				l-8.9-0.3c-1.4,3.2-2.1,5.5-1.2,8.9C60.9,25.5,67.5,28.9,62.2,33.5"/>
		</g>
		<g>
			<g>
				<path class="st0" d="M84.6,129.9c1.1-3.1,1.4-7.7,2.5-10.8c-2.8-0.7-7-3.1-10-3.7c0.1,1.9,0.7,3.5,0.7,5.5c-0.6,0-1,0.2-1.2,0.6
					c2.5,2.1,5.6,5.2,7.6,7.7"/>
			</g>
			<g>
				<path class="st0" d="M116.5,42c7,0.3,14.1-1.7,17.2-5.4c0.3-5.4-1.1-9-3.8-11.8s-8.3-6.5-11.9-7.9c-7.7-2.9-19.1-1.5-23.9,3.9
					c0.9,1.5,4.1,1.1,5.6,1.3c2.2,0.3,4.9,1.9,7.4,2.9c4.5,1.8,8.5,2.9,11.1,5.7c-6-2.9-14-5-21.5-7.1c2.7,0.8,1.3,8.9-0.7,10.9
					C99.6,38.5,107.8,41.5,116.5,42"/>
			</g>
			<g>
				<path class="st0" d="M78.8,108.3c-3.1-2.3-5.6-6.1-9.2-7.2c2.7,3.3,4.9,8.3,7.4,11.8c0.8-1.4,1.5-2.9,2.2-4.3"/>
			</g>
			<g>
				<path class="st0" d="M118,15.8c2.6-1.7,3.4-5.2,3.6-9.4c-2.9,2.8-6.7,4.8-10.8,6.5c2.7-1.8,5.9-3.6,8.1-5.7
					c0.7-0.7,2.2-2.2,2.1-2.9c-10.6-1.9-18.9,0.9-25,5.3c-4.1,3-3.2,6.8-2.4,10C98.3,15.1,110.5,13.2,118,15.8"/>
			</g>
			<g>
				<path class="st0" d="M122.6,4c0,0.6,1,0.4,1.3,0.7c3.1,0.6,6.2,1.2,9.1,2.1c-3.5,0.2-7.2-0.3-10-0.7c0.3,2.1-0.5,3.5-0.8,5.5
					c9,0.1,10.6-1.2,15.6-4.1c-6.5,0.1-11.8-5.4-17.9-6.1c-4.7-0.5-9.7-0.1-13,0.9c-3.2,0.9-5.2,2.1-7,3.9
					c4.3-2.9,13.6-3.5,22.3-2.7"/>
			</g>
			<g>
				<path class="st0" d="M73.1,109c-1.2-2.4-2.9-5.3-4.7-7.6c-7.3-9.2-11-10-13.2-12.3c-0.7-0.8-4.7-2.2-4.7-3.6
					c-0.2,8,13.1,22.9,21.9,30.9c-6.1-4.8-13-10.3-16.9-16.4c3,4.9,1,15.4-1.3,20.6c1.7,0.2,4.7,1.7,6.8,2.3
					c0.8-0.1,1.6-0.1,2.4-0.2c0-0.1,0-0.1,0-0.2c1.8,0.1,4.2-0.8,6.2-1.1c2.1-0.4,4.2-0.9,6.2-1.3C75.7,115.6,74.5,112,73.1,109z"/>
			</g>
			<g>
				<path class="st0" d="M77.8,114.1c3.3,0.9,6.3,2.1,9.5,3.1c1.1-3.4,2.7-5,5-7.3c1.3-1.3,4.3-2.7,4.7-4.1c0.1-0.5,0-1.5,0.1-2
					c0.1-1.7,0.1-3,0.5-4.9c-2.7,2.1-5.4,5.3-7.5,7.3c8.9-8.6,8.9-9.5,12.5-15.3C93.5,99,83.8,103,77.8,114.1"/>
			</g>
			<g>
				<path class="st0" d="M122.3,12.7c-0.6,1.2-2.2,2.2-2.8,3.5c5.3,2.5,10.6,5.9,13.7,10.5c4.7,0.5,10,1.1,13.4,2.8
					c-0.2-1.6,0.4-2.3-0.7-4.1c-3.1-4.9-13.4-14.5-22.9-12.6"/>
			</g>
			<g>
				<path class="st0" d="M86.2,130.8c0.2,1.5,2.6,3.6,2.6,4.7c-1.7-1.4-2.4-3.7-6-3.2c0.2-0.6,0.5-1.1,0.6-1.8
					c-1.6-1.2-3.3-3.5-5.3-5c-1-0.7-2.8-3.2-3.9-3.3c-1.7-0.2-4.6,1.7-6.8,1.4c-0.7,2.2,0.1,5-0.3,7.6c5.6,5,13.9,7.5,25.2,7.2
					c0.1-1.9-0.5-5.8-1.4-7.2c-1.7-0.4-2-0.2-3.8-0.5"/>
			</g>
			<g>
				<path class="st0" d="M118.1,112.8c-11.4,4.9-18.1,11.1-26.4,16c4.5-3.4,8.3-7.5,13.3-10.3c-1.6,0.3-2.9,0.9-4.6,1.2
					c-2.1-2.7-2.4-7-3.1-11c-6.8,3.4-9.4,12.3-10.8,21c4.4-0.1,8,2.1,11.8,2.3c1.2,0.1,2.8-0.3,4.3-0.6c6.8-1,10.5-3.8,14.8-7.1
					c2.6-2,4.3-2.9,5.2-5.8c-2.2-1.1-2.6-3.9-4.5-5.2"/>
			</g>
			<g>
				<path class="st0" d="M40.3,101.2c-4.5-0.2-9.1-1.8-12-3.8c-1,4.5-1.5,9.4-3.8,12.6c1.7-2.6,2-7.5,2.4-11.9
					c0.3-2.7-0.9-3.8-2.7-4.8c-1.9,2.2-4.2,3.9-6.7,5.5c-0.5,7.1,3.4,9.9,4,16C31.3,113.7,39.4,111,40.3,101.2"/>
			</g>
			<g>
				<path class="st0" d="M65.5,124.1c-4.2,1.1-8.3-1.7-12.1-2.2c-1.7,2.9,1.8,6.7,3.4,8.5c0.8,1,1.8,2.5,2.5,3
					c1.8,1.2,4.8,1.5,6.4,2.5C64.2,131.9,65.6,128,65.5,124.1"/>
			</g>
			<g>
				<path class="st0" d="M125.5,104.5c-1.3,2.4-4.3,5.9-6,7.8c1.9,3.5,5.5,5.6,9,7.6c2.2-4.5,6-8.6,7.1-13.5
					c-1.7,1.2-4.2,0.8-6.5,1.3c-1.4-0.8-1.5-1.7-2.8-2.6"/>
			</g>
			<g>
				<path class="st0" d="M54.1,104.9c-0.9-6-0.8-9.7-3.8-15c1.6,2.9-2.9,4.4-3.8,7.1c-1.5,1.2-4.4,2.3-3.8,4.8
					c0.5,2.3,7.5,6.2,7.8,7.9c-1.2-0.7-2.7-1.7-4.1-2.6c-1.4-0.9-2.8-2.3-3.9-2.2c0.6,6.7,2.1,13.6,2.7,19.6c-2-6.1-3.2-13-4-20.2
					c-0.7,6.1-5,8.5-9.8,10.5c0.8,9.2,8.4,12,14.8,15.9c3.5-5.1,8.1-11.3,8.7-19.5C55,109.2,54.4,107.1,54.1,104.9"/>
			</g>
			<g>
				<path class="st0" d="M45.2,14.2c-5.8-3.4-15.5-4.9-23.6-2.8c3.4,3.4,8.9,4.8,14.8,5.9C39.1,16.1,41.7,14.7,45.2,14.2"/>
			</g>
			<g>
				<path class="st0" d="M47.2,13.7c2.3-1.1,5.7-0.3,8.2-0.5c-8.1-7-18.9-7.4-26.3-8.7c0.3,1.4-0.9,3.4-0.4,4.7
					C36,8.5,42.2,11.3,47.2,13.7"/>
			</g>
			<g>
				<path class="st0" d="M40.4,29.3c3.4-1.3,5.9-3,9.6-4.1c-0.5-1.1-3.1-1.6-3.3-2.4c2.4,1.2,6.3-0.3,8.9-0.5c0.2-1.2-4-1.7-3.9-3.2
					c1.9,0.7,4.5,1.3,6.4,2c0.1-2-2.1-6.7-0.9-6.2c-5-2.1-14.6,1-19.2,3.2c-1.5,0.8-3.6,1.7-4.6,2.4c-2.9,2-6.1,5.4-7.6,8
					c-2.9,4.9-3.2,9.7-2.3,16.2c1.8,1,3.7,1.8,6,2.4c2.2,0.6,5.1,1,7.1,1c1.5,0,4.1-1,5.4-1.6c1.7-0.7,3.9-2.5,5.6-3.9
					c1.7-1.3,3.9-2.7,5.6-4.3c1.3-1.2,3.4-1.9,5.3-3.2c-0.3,0.2,1.8-0.4,4.2-3.7c1.2-1.7-1.7-6.9-3.5-7.8
					c-12.1,3.3-22.3,8.5-31,15.1c3.6-3.1,7.3-5,10.5-8.5"/>
			</g>
			<g>
				<path class="st0" d="M27.5,23.7c2.4-1.8,3.9-4.4,6.9-5.5C28.8,17,24,15,20.8,11.5C20.7,17.7,23.8,21,27.5,23.7"/>
			</g>
			<g>
				<path class="st0" d="M55.5,11.5c0.5,0.3,2.2,1.9,2.5,1.2c1.6-3.3,3.6-3-1.7-7.3c-2.2-1.8-5.2-2.5-8.8-3.3C45.8,1.8,44,2,42.6,2
					c-4.5,0-8.8,1.3-12.3,1.6c4.5,0.8,8.9,1.1,12.9,2C48.2,6.7,52.2,9.3,55.5,11.5"/>
			</g>
			<g>
				<path class="st0" d="M26.4,25.5c-3.1-0.8-8.5,0.6-11.6,0.5c4.4-0.8,8.1-1.8,10.4-2.1c-1.5-0.4-1.7-2.8-3-2.9
					c-7.6-0.9-11.1,4.5-14.4,8.6C14.9,28.9,25,31.2,26.4,25.5"/>
			</g>
			<g>
				<path class="st0" d="M23.2,90.4c-1.8-2.9-1.6-6.5-3.3-9.5c-0.9,5.1-4.1,9.4-6.3,13.3c1.7-3.6,3.1-7.5,4-11.7
					c-2.8,0.7-5.7,1.3-8.3,2.1c-0.4,5.2,1.1,9.8,1.1,15.2c6.1-1.3,8.6-4.2,11.7-8.4"/>
			</g>
			<g>
				<path class="st0" d="M124.6,103.6c-1.7-2.8-2.7-8.9-2.8-13.2c-1.9,0-3.5,0.5-5.2,0.7c-4,6.3-7.9,13.6-11.9,19.7
					c3.3-6.6,7.2-13.9,10.7-20.4c-1.4-4.9-1.4-10.4,0.5-15.1c-2.6,2-5.7,6.1-8,9.6c-2.1,3.1-5.1,7.2-6.5,10.3
					c-2.9,6.5-2.9,15.4-0.4,22.3c10.9-1.5,18.8-5.3,23.2-13.2"/>
			</g>
			<g>
				<path class="st0" d="M133.7,39.3c0.4-0.6-1.8,0.7-2.4,1.1c-2.6,1.8-5.6,1.8-8.4,2.8c4.5,5.4,9.4,12.7,12.7,18.7
					c0.1,0.2,0.3,0.3,0.4,0.5v0.2c-0.1-0.2-0.3-0.5-0.4-0.7c-3.1-4-6.8-9.1-10.5-13.4c-1.2-1.4-2.9-4.8-4.1-5.1
					c-3.2-0.9-12.5-0.8-13.2-2c2.3,3.7,4.7,7.6,7.5,11.6c4.5,6.4,9.5,12.1,23.5,13.5c0,0,2.2-2.2,1.9-6.2c-0.5-5.9,2.1-6.9-3.1-18.1
					C137.2,41.4,134.4,39.3,133.7,39.3"/>
			</g>
			<g>
				<path class="st0" d="M116.1,73.7c1.6-1.8,4.1-8.3,6.4-10.5c-0.3-0.8-1.3-1.2-2.3-2.3c-0.7-0.7-2.2-3.6-2.8-3.2
					c-0.1,7.5-2.3,14.9-2.3,14.9c-0.4,1.9-0.4,3.4,0.4,1.8"/>
			</g>
			<g>
				<path class="st0" d="M44.1,46.4c0.1,0.6-2,1.7-2.8,1.9c-2.3,0.7-7,0.6-9.2,0.6c-2.6,5.6-5.2,14-7.8,18.8
					c2.1-5.9,4.3-12.9,6.2-19c-2.1-0.8-4.9-1.6-7.1-2.3c-1.4,1.7-2.6,3.8-4.1,5.6v0.1c-0.1,0.1-0.1,0.2-0.2,0.2
					c-0.3,0.4-0.6,0.8-1,1.1c-0.1,0.1-0.2,0.2-0.3,0.3c0,0-0.1,0-0.1,0.1c-0.1,0.1-0.1,0.1-0.1,0.2c-0.1,0.1-0.1,0.1-0.2,0l0,0
					c-0.3,0.2-0.5,0.4-0.8,0.6s-0.7,0.5-1.1,0.7c-0.2,0.1-0.4,0.2-0.6,0.2l0,0c-0.2,0.1-0.4,0.1-0.6,0.2c0.5,7.9,5,11.8,6.7,18.6
					c3.7-1.7,8.7-4,11.6-6.5c0.9-0.8,1.8-2.3,2.7-3.4C38.2,61.2,45.2,51.6,44.1,46.4z"/>
			</g>
			<g>
				<path class="st0" d="M20.9,43.7c-6.2,2.8-12.1,8.5-17.4,12.7c3.5-0.6,6.3-0.7,10.4-2.6c1.4-0.6,8.5-4.5,8.2-10.2
					c0.2,0-0.4-0.2-0.8-0.2"/>
			</g>
			<g>
				<path class="st0" d="M133.4,67.3c-5,5.6-9.9,13.2-14.6,18.4c2.5-5.1,9.6-13.1,12.5-17.4c0,0-4.9,2.3-9.1,4.9
					c2.8-1.7,5.8-4.5,8.8-6.2c-2.4-0.7-5.3-1.8-7.2-3c-5.4,4.8-9.6,16.2-7.5,25.7c2.8-0.4,6.1-0.9,8.7-1.3c2.5-0.4,5.6-0.6,7.7-1.5
					c1.1-0.5,3.6-2.7,4.6-3.7c0.7-0.8,1.4-2.3,2.3-3.6c4.1-5.8,6.7-13.7,5.6-23.9c-0.6-0.5-3-1.7-2.9-2.5c-0.1,6,0.2,10.9-2,14.7
					L133.4,67.3z"/>
			</g>
			<g>
				<path class="st0" d="M32.6,97.9c5.2,2.5,9.5,0.5,12-2.5c0.7-0.8,2.1-3,2.7-4.4c1.7-3.5,2.2-7.2,0.7-10.8
					c-2-4.7-6.9-12-11.2-15.1c-1.3,1.4-5.5,4.5-5.9,6.4c-0.3,1.3,0.9,3.7,1.4,5.6c1.6,5.8,4.9,10.9,5.9,15.2
					c-2.9-6.8-7.7-12.4-9.6-20.1c-2.1,1.1-5.1,2.9-7.8,4c0.4,4.6,1.9,7.6,3.6,11.3C26.4,92.1,28.9,96.1,32.6,97.9"/>
			</g>
			<g>
				<path class="st0" d="M42.9,67.1C43,65.9,42,61,41.6,56.8c0.2,2.4-3.5,5.1-4,7c1,0.8,6.8,8.2,7.5,8"/>
			</g>
			<g>
				<path class="st0" d="M145.6,72.1c-2,3.2-4.4,6.9-6.5,10.7c-4.8,4.4-6.5,13.6-10.1,18.4c1.7-4.1,3.5-10,6.1-13.3
					c-3.4,0.7-8.7,1.9-12,2.6c0.4,2.5,0.2,6.2,0.8,8.6c0.7,2.5,3.5,5.5,5.3,6.2c2.2,0.8,7.8-0.8,9.3-1.7c1.1-0.6,3.3-2.8,4.2-3.9
					c4.9-6.5,6.6-18.6,3.5-26.5c0-0.2-0.1-0.8-0.3-0.8"/>
			</g>
			<g>
				<path class="st0" d="M134.3,28.1c1.4,1.8,1.8,7.4,1.3,9.8c2.4,0.8,2.6,3.1,4.1,4.8c3,3.6,8.3,5.5,11.1,8.7
					c-3.3-2.2-7.1-4.5-10.6-6.5c0.5,1.9,0.4,4.4,1.9,6.1c4.6,5,13.5,6,15,4c3-4.1,0.8-8.1,0.5-12.6c-3.6-7.6-13-12.7-22.4-14.1"/>
			</g>
			<g>
				<path class="st0" d="M147.2,55.8c0.5,6.2,4.5,10,4.6,15.9c0,0,0,0,0,0.1v0.4c0-0.2,0-0.3,0-0.4c-1.1-3.7-2.5-7.1-4.4-10
					c0.2,3-1.2,5.3-0.7,7.8c0.4,2.1,1.8,3.5,2.8,6.2c0.9,2.1,2.8,3.2,2.8,3.2c1.4-3.8,3.1-11-0.2-19.3
					C151.4,57.7,149.1,56.9,147.2,55.8"/>
			</g>
			<g>
				<path class="st0" d="M23.2,31.1c-3.9-0.1-6.7,0.4-10.3,0.4c-4.3,2.5-7,4.9-10,10.5c-2.1,3.9-2.5,9.4-1.2,14.4
					c6.4-5.2,13.6-10.2,20.2-15.2c-0.2-4.3-0.3-6.7,0.9-9.7"/>
			</g>
			<g>
				<path class="st0" d="M15,65.3c-3.6,5-7.4,11.3-11,15.6c2.8-6,8.2-10.6,9.8-17.8c-1.2-0.1-3.4,0.8-4.2,0.3
					c1.2-0.7,3.1-1.3,3.9-2.4c0-1.4-0.4-2.7-0.4-4.1c-1.4-0.8-3.3-0.1-4.5,0.5c-1,0.5-3.8,3.3-4.4,4.2c-1,1.4-2.8,6-3.2,7.6
					C-0.4,75,0.8,80.8,1.7,85.4c5.6-1.7,11.3-3.2,17-4.9c-0.7-5.4-1.2-11.2-3.8-14.8"/>
			</g>
			<g>
				<path class="st0" d="M151.8,71.8C151.8,71.8,151.8,71.7,151.8,71.8s0,0.2,0,0.4V71.8z"/>
			</g>
			<g>
				<path class="st0" d="M136,62.5c-0.1-0.2-0.3-0.3-0.4-0.5c0.1,0.2,0.3,0.5,0.4,0.7V62.5z"/>
			</g>
			<g>
				<path class="st0" d="M93.8,19.1"/>
			</g>
			<g>
				<path class="st0" d="M69.9,101.4c0,0,2.4,3.7,3.4,5.3c0.9,1.6,2.1,4,2.1,4l1.6,2.2l0.3-3l-0.7,0.7c0,0-0.8-1.8-0.9-2
					c-0.1-0.1-1.1-0.6-1.1-0.6s-0.8-1.9-0.9-1.9c-0.2,0-1.8-2.3-1.8-2.3L69.9,101.4z"/>
			</g>
			<g>
				<path class="st0" d="M49.2,25"/>
			</g>
			<g>
				<path class="st0" d="M47.9,25.3"/>
			</g>
		</g>
		<g class="st1">
			<g>
				<path class="st0" d="M82.7,78.3c0.1,0.1,0,0,0.1,0.1c0,0,0,0-0.1,0C82.7,78.4,82.7,78.3,82.7,78.3z"/>
			</g>
			<g>
				<path class="st0" d="M80.9,78.6L80.9,78.6L80.9,78.6C81,78.5,80.9,78.5,80.9,78.6C80.9,78.5,80.9,78.5,80.9,78.6
					c0-0.1,0-0.1,0-0.1S80.9,78.5,80.9,78.6z"/>
			</g>
			<g>
				<path class="st0" d="M82.8,78.7c0.1,0,0.1,0,0.2,0c0,0,0,0,0-0.1c-0.1,0-0.1-0.1-0.2-0.1C82.8,78.6,82.8,78.7,82.8,78.7z"/>
			</g>
			<g>
				<path class="st0" d="M79.5,78.7c0,0.1,0,0.1,0,0.2c0.2,0.1,0.3,0.2,0.3-0.1C79.7,78.7,79.6,78.7,79.5,78.7z"/>
			</g>
			<g>
				<path class="st0" d="M85.5,79.1c0.1,0.1,0,0.2,0,0.4c0,0,0,0-0.1,0c0,0,0,0,0-0.1c0,0,0,0-0.1,0c0,0,0,0,0-0.1c0,0,0,0,0.1,0
					C85.4,79.3,85.5,79.2,85.5,79.1z"/>
			</g>
			<g>
				<path class="st0" d="M81.4,79.3c0,0.1-0.1,0.1-0.2,0.3c-0.2,0-0.2-0.1-0.2-0.2c0.1,0,0.1,0.1,0.2,0.1c0,0,0,0,0-0.1
					c0,0,0,0,0.1,0l0,0c-0.1,0-0.1,0-0.2,0c0-0.2-0.1-0.1-0.2-0.3c0,0,0,0,0.1,0C81.1,79.2,81.2,79.3,81.4,79.3z"/>
			</g>
			<g>
				<path class="st0" d="M84.8,79.2c0.1,0.1,0,0,0.1,0.1c0,0,0,0-0.1,0C84.8,79.2,84.8,79.2,84.8,79.2z"/>
			</g>
			<g>
				<path class="st0" d="M79.8,79.7L79.8,79.7C79.8,79.7,79.7,79.7,79.8,79.7c0,0.1,0,0.1,0,0.1s0,0,0.1,0c0-0.1,0-0.2,0-0.3
					c0,0,0,0-0.1,0c0-0.1,0-0.2,0-0.2s0,0,0.1,0v-0.1c0,0,0,0-0.1,0c0,0.1-0.1,0.2-0.1,0.2s0,0,0.1,0C79.8,79.5,79.8,79.6,79.8,79.7
					z"/>
			</g>
			<g>
				<path class="st0" d="M83.6,79.3c0.1,0.1,0,0,0.1,0.1c0,0,0,0-0.1,0C83.6,79.4,83.6,79.3,83.6,79.3z"/>
			</g>
			<g>
				<path class="st0" d="M79.3,79.2L79.3,79.2c0.1,0,0.1,0,0.1,0.1C79.3,79.3,79.3,79.3,79.3,79.2z"/>
			</g>
			<g>
				<path class="st0" d="M82,79.3c0,0.1,0.1,0.1,0.1,0.2c0,0,0,0,0.1,0C82.2,79.4,82,79.3,82,79.3z"/>
			</g>
			<g>
				<path class="st0" d="M82.5,79.3c0.1,0.1,0.1,0.1,0.1,0.2c0,0,0,0-0.1,0c0,0,0,0,0,0.1l0,0c0,0,0,0,0-0.1
					C82.4,79.4,82.5,79.5,82.5,79.3C82.5,79.4,82.5,79.4,82.5,79.3z"/>
			</g>
			<g>
				<path class="st0" d="M85.3,79.6c0.1,0.1,0,0,0.1,0.1c0,0,0,0-0.1,0C85.3,79.7,85.3,79.6,85.3,79.6z"/>
			</g>
			<g>
				<path class="st0" d="M81,79.6L81,79.6l0.1,0.1C81.1,79.7,81,79.7,81,79.6C81,79.7,81,79.6,81,79.6z"/>
			</g>
			<g>
				<path class="st0" d="M81.5,80.5c0,0.2,0.1,0.3-0.1,0.4v-0.1c-0.1-0.1-0.1-0.3-0.2-0.4c-0.1,0-0.1,0-0.2,0.1v-0.1c0,0,0,0,0.1,0
					c0.1-0.1-0.1-0.6-0.1-0.6h0.1c0.1,0.1,0,0,0.1,0.1c0-0.1,0-0.1,0.1-0.2c0,0,0,0,0-0.1c0,0,0,0,0.1,0c0,0.2,0,0.4,0,0.6
					c0,0,0.1,0,0.1,0.1s-0.1,0.3-0.1,0.3C81.4,80.5,81.4,80.5,81.5,80.5z"/>
			</g>
			<g>
				<path class="st0" d="M83.5,80L83.5,80l-0.1,0.1c-0.1,0-0.2,0-0.2,0c0-0.1,0-0.2,0.1-0.3c0,0,0,0,0.1,0
					C83.4,79.8,83.4,79.8,83.5,80C83.5,79.9,83.6,79.9,83.5,80C83.5,80,83.5,80,83.5,80z"/>
			</g>
			<g>
				<path class="st0" d="M81.8,80.1L81.8,80.1c0.1,0.1,0.1,0.1,0.1,0.2c0,0,0,0-0.1,0l0,0C81.8,80.2,81.8,80.2,81.8,80.1z"/>
			</g>
			<g>
				<path class="st0" d="M81,80.1c0,0.1,0,0.1,0,0.2c0,0,0,0-0.1,0C81,80.3,81,80.2,81,80.1c-0.1,0.1-0.1,0.1-0.1,0.1
					C80.8,80.1,81,80.1,81,80.1z"/>
			</g>
			<g>
				<path class="st0" d="M81.3,80.3v0.1c0,0,0,0,0.1,0C81.3,80.3,81.3,80.3,81.3,80.3L81.3,80.3z"/>
			</g>
			<g>
				<path class="st0" d="M83,80.6L83,80.6c-0.1,0.1-0.1,0.1-0.3,0.2v-0.1c-0.2,0-0.1,0-0.2-0.2c0,0,0,0-0.1,0c0-0.1,0-0.1,0-0.2
					c0,0,0,0,0.1,0c0,0,0,0,0-0.1c0.1,0,0,0,0.1,0.1C82.9,80.4,83,80.5,83,80.6c0.1,0,0.1,0.1,0.1,0.2c0,0,0,0-0.1,0l0,0
					c0,0,0,0-0.1,0C83,80.7,83,80.7,83,80.6z"/>
			</g>
			<g>
				<path class="st0" d="M85.2,80.4L85.2,80.4c0.1,0,0.1,0,0.1,0.1C85.2,80.4,85.3,80.4,85.2,80.4z"/>
			</g>
			<g>
				<path class="st0" d="M80.2,80.3c0,0.1,0,0.2,0.1,0.3c0,0,0,0,0.1,0c0,0,0,0,0-0.1c0,0,0,0,0.1,0c0,0,0-0.1,0-0.2
					C80.3,80.3,80.2,80.3,80.2,80.3z"/>
			</g>
			<g>
				<path class="st0" d="M80.9,80.3c0.1,0.1,0,0,0.1,0.1c0,0,0,0-0.1,0C80.9,80.4,80.9,80.3,80.9,80.3z"/>
			</g>
			<g>
				<path class="st0" d="M83.7,80.4c0.1,0,0.2,0.1,0.1,0.2c0,0,0,0-0.1,0c0,0.1,0,0.1-0.1,0.2c0,0,0,0-0.1,0c0-0.1,0-0.1,0-0.2
					c0,0,0,0,0.1,0C83.7,80.5,83.7,80.4,83.7,80.4z"/>
			</g>
			<g>
				<path class="st0" d="M80.9,80.4c0.1,0.1,0,0,0.1,0.1c0,0,0,0-0.1,0V80.4z"/>
			</g>
			<g>
				<path class="st0" d="M81.1,80.5C81.2,80.5,81.2,80.5,81.1,80.5c0.1,0.1,0,0.2,0,0.3c0,0,0,0-0.1,0c0,0,0,0,0-0.1c0,0,0,0-0.1,0
					C81,80.6,81.1,80.5,81.1,80.5z"/>
			</g>
			<g>
				<path class="st0" d="M82.8,80.5v0.1h0.1L82.8,80.5C82.8,80.5,82.8,80.5,82.8,80.5z"/>
			</g>
			<g>
				<path class="st0" d="M83.4,80.6L83.4,80.6c0.1,0.2-0.1,0.2-0.1,0.2C83.2,80.7,83.3,80.7,83.4,80.6z"/>
			</g>
			<g>
				<path class="st0" d="M80.9,80.6c0.1,0.1,0,0,0.1,0.1c0,0,0,0-0.1,0C80.9,80.7,80.9,80.7,80.9,80.6z"/>
			</g>
			<g>
				<path class="st0" d="M85.3,80.7c0.1,0.1,0,0,0.1,0.1c0,0,0,0-0.1,0C85.3,80.8,85.3,80.8,85.3,80.7z"/>
			</g>
			<g>
				<path class="st0" d="M81.1,80.8v-0.1c0,0,0,0,0.1,0C81.1,80.8,81.1,80.8,81.1,80.8c0.1-0.1,0.1-0.1,0.1-0.1
					C81.1,80.9,81.2,80.8,81.1,80.8z"/>
			</g>
			<g>
				<path class="st0" d="M85.2,81L85.2,81c-0.1-0.1-0.1-0.1-0.1-0.2c0,0,0,0,0.1,0l0,0C85.2,81,85.1,80.9,85.2,81z"/>
			</g>
			<g>
				<path class="st0" d="M82.7,81.2c0,0.1,0,0.1,0.1,0.2l0,0c0,0,0,0,0.1,0v-0.1C82.9,81.3,82.9,81.3,82.7,81.2
					c0.1,0.1,0.1,0,0.1-0.1C82.8,81.1,82.8,81.1,82.7,81.2c0.1-0.1,0.1-0.1,0.1-0.1c-0.1,0-0.1,0-0.2,0c0,0,0,0,0-0.1
					c-0.1-0.1-0.1-0.1-0.3-0.2c0,0,0,0,0,0.1l0,0C82.4,81,82.5,81.1,82.7,81.2L82.7,81.2z"/>
			</g>
			<g>
				<path class="st0" d="M83.5,81L83.5,81c-0.1,0-0.1,0-0.1-0.1C83.4,80.9,83.5,80.9,83.5,81c-0.1-0.1-0.1-0.1-0.1-0.1
					C83.5,80.9,83.5,80.9,83.5,81z"/>
			</g>
			<g>
				<path class="st0" d="M85.3,80.9C85.4,80.9,85.4,80.9,85.3,80.9c0.1,0.1,0.1,0.2,0.1,0.3c0,0,0,0-0.1,0c0,0,0,0,0-0.1
					c0,0,0,0-0.1,0C85.3,81.1,85.3,81,85.3,80.9z"/>
			</g>
			<g>
				<path class="st0" d="M84.3,80.9c0.1,0.1,0.1,0.1,0.1,0.2c0,0,0,0-0.1,0C84.3,81.1,84.3,81.1,84.3,80.9
					C84.3,81,84.3,81,84.3,80.9C84.3,81,84.3,81,84.3,80.9z"/>
			</g>
			<g>
				<path class="st0" d="M84.5,81L84.5,81l0.1,0.1h-0.1V81z"/>
			</g>
			<g>
				<path class="st0" d="M81.5,81L81.5,81c0.1,0.2,0.1,0.3,0.1,0.5c0.2,0.1,0,0.1,0.1,0.2c0.1,0,0,0,0.1,0c0,0,0,0,0.1,0
					c0,0,0,0.1,0,0.2c0,0,0,0-0.1,0c0,0,0,0,0,0.1c-0.1,0-0.1-0.1-0.2-0.1V82c-0.1,0.1-0.1,0.1-0.1,0.2c0,0,0,0,0.1,0
					c0.1,0.1,0.1,0.3,0.2,0.4c0,0,0,0-0.1,0c-0.1-0.2-0.2,0-0.4-0.2c-0.1-0.1,0,0,0-0.1h-0.1c0-0.1-0.1-0.1-0.1-0.2h0.1
					c0.1-0.4,0.2-0.2,0.3-0.3c0,0,0-0.1,0-0.2l0.1-0.1c-0.3,0-0.3-0.1-0.3-0.4C81.4,81,81.4,81,81.5,81c0,0.2,0,0.3,0,0.4
					c0,0,0,0,0.1,0c0,0,0-0.1,0-0.2c0,0,0,0-0.1,0C81.5,81.1,81.5,81,81.5,81z"/>
			</g>
			<g>
				<path class="st0" d="M83.2,81.1c0,0.1,0,0.1,0,0.2h0.1C83.3,81.2,83.3,81.2,83.2,81.1C83.3,81.1,83.2,81.1,83.2,81.1z"/>
			</g>
			<g>
				<path class="st0" d="M85.1,81.7c0.1,0,0.1,0,0.2,0.2c0.1,0,0.1,0,0.2,0V82c-0.1,0-0.1,0-0.2-0.1c0,0,0,0,0,0.1c0,0,0,0,0.1,0
					c0,0.1,0,0.2-0.1,0.3h-0.1c0,0.1,0,0.1,0.1,0.2c0,0,0,0-0.1,0c-0.1,0.1,0,0-0.1,0v-0.1c0,0,0,0-0.1,0c0,0,0-0.1,0.1-0.2
					c-0.1,0,0,0-0.1-0.1C85.2,82,85.1,81.9,85.1,81.7C85.1,81.7,85.1,81.7,85.1,81.7c-0.2,0.1-0.2,0.1-0.2,0.3c-0.1,0-0.1,0-0.2-0.2
					h-0.1c0-0.1,0-0.2,0.1-0.3c0.1,0,0.1,0,0.2,0.1c0,0.1,0,0.1-0.1,0.2c0.2,0,0.2-0.1,0.2-0.3h-0.1c0.1-0.2,0.2-0.2,0.2-0.4
					c0.1,0.1,0,0,0.1,0.1c0,0,0,0,0.1,0c0,0.1-0.1,0.1-0.1,0.1v0.1c0,0,0,0-0.1,0C85,81.5,85.1,81.5,85.1,81.7z"/>
			</g>
			<g>
				<path class="st0" d="M81.1,81.1L81.1,81.1c0.1,0,0.1,0,0.1,0.1C81.1,81.1,81.1,81.1,81.1,81.1z"/>
			</g>
			<g>
				<path class="st0" d="M84.3,81.1c0.1,0.1,0,0.3-0.1,0.4c0,0,0,0-0.1,0v-0.1c0,0,0,0,0.1,0S84.3,81.3,84.3,81.1z"/>
			</g>
			<g>
				<path class="st0" d="M84.5,81.2L84.5,81.2c0,0.1,0,0.4,0,0.5c0,0,0,0-0.1,0c0-0.1,0-0.3,0-0.4c0,0,0,0,0.1,0V81.2z"/>
			</g>
			<g>
				<path class="st0" d="M85.3,81.4L85.3,81.4C85.1,81.3,85.3,81.3,85.3,81.4c0-0.1,0-0.2,0-0.2s0,0,0.1,0c0,0.2,0,0.4-0.1,0.5
					C85.3,81.6,85.3,81.5,85.3,81.4z"/>
			</g>
			<g>
				<path class="st0" d="M82.4,81.2c0,0.1-0.1,0.1-0.1,0.3h-0.1C82.2,81.3,82.2,81.2,82.4,81.2z"/>
			</g>
			<g>
				<path class="st0" d="M84,81.2L84,81.2c0.1,0,0.1,0.1,0.1,0.2c0,0,0,0-0.1,0c-0.1,0.1,0,0-0.1,0.1C84,81.4,84,81.3,84,81.2z"/>
			</g>
			<g>
				<path class="st0" d="M81.4,81.4L81.4,81.4c-0.1-0.1-0.1-0.1-0.1-0.2c0,0,0,0,0.1,0C81.4,81.2,81.4,81.2,81.4,81.4
					C81.4,81.3,81.4,81.3,81.4,81.4C81.4,81.3,81.4,81.4,81.4,81.4z"/>
			</g>
			<g>
				<path class="st0" d="M82.4,81.4L82.4,81.4l0.1,0.1h-0.1C82.4,81.4,82.4,81.4,82.4,81.4z"/>
			</g>
			<g>
				<path class="st0" d="M83.7,81.5c0.2,0.1,0.1,0.1,0.3,0.2c-0.1,0.3-0.1,0.3-0.1,0.6c0,0,0,0-0.1,0c0,0,0,0,0-0.1c0,0,0,0-0.1,0
					c0-0.1,0-0.3,0-0.5c0,0,0,0-0.1,0C83.6,81.6,83.6,81.6,83.7,81.5C83.7,81.5,83.7,81.5,83.7,81.5C83.7,81.6,83.7,81.5,83.7,81.5z
					"/>
			</g>
			<g>
				<path class="st0" d="M82.5,81.6c0.1,0.1,0,0,0,0.1l0,0C82.5,81.7,82.5,81.6,82.5,81.6z"/>
			</g>
			<g>
				<path class="st0" d="M84.3,81.7L84.3,81.7c0.1,0.1,0,0.1,0,0.2c0,0,0,0,0.1,0c0,0,0,0,0,0.1h-0.1c0,0,0,0,0-0.1
					S84.3,81.9,84.3,81.7C84.3,81.8,84.3,81.8,84.3,81.7z"/>
			</g>
			<g>
				<path class="st0" d="M85.1,81.8c0.1,0.1,0,0,0.1,0.1C85.1,81.8,85.2,81.8,85.1,81.8z"/>
			</g>
			<g>
				<path class="st0" d="M82.4,81.8v0.1c0,0,0,0-0.1,0C82.3,81.9,82.3,81.9,82.4,81.8c-0.1,0.1-0.1,0.1-0.1,0.1S82.3,81.9,82.4,81.8
					L82.4,81.8z"/>
			</g>
			<g>
				<path class="st0" d="M84,81.9c0.1,0.1,0,0,0.1,0.1c0,0,0,0-0.1,0V81.9z"/>
			</g>
			<g>
				<path class="st0" d="M83.2,81.9c0,0.1,0,0.1,0.1,0.2c0,0,0,0,0.1,0V82C83.3,82,83.2,81.9,83.2,81.9z"/>
			</g>
			<g>
				<path class="st0" d="M85.6,82v0.1c-0.1,0-0.1-0.1-0.2-0.1C85.5,82,85.6,82,85.6,82z"/>
			</g>
			<g>
				<path class="st0" d="M84.2,82.1c0.1,0.1,0,0,0,0.1c0,0,0,0-0.1,0C84.2,82.1,84.2,82.1,84.2,82.1z"/>
			</g>
			<g>
				<path class="st0" d="M84.9,82.3L84.9,82.3c-0.1,0-0.1,0-0.1-0.1C84.8,82.2,84.8,82.2,84.9,82.3c-0.1-0.1-0.1-0.1-0.1-0.1
					C84.9,82.2,84.9,82.2,84.9,82.3z"/>
			</g>
			<g>
				<path class="st0" d="M81.1,82.1c0.1,0.1,0,0,0.1,0.1c0,0,0,0-0.1,0C81.1,82.2,81.1,82.2,81.1,82.1z"/>
			</g>
			<g>
				<path class="st0" d="M82.9,82.2v0.1c0,0,0,0,0.1,0C82.9,82.3,82.9,82.3,82.9,82.2L82.9,82.2z"/>
			</g>
			<g>
				<path class="st0" d="M83.6,82.5L83.6,82.5l0.1-0.1c-0.1,0-0.1,0-0.2-0.1c0,0,0,0,0,0.1C83.6,82.4,83.6,82.4,83.6,82.5z"/>
			</g>
			<g>
				<path class="st0" d="M84.3,82.3c0.1,0.1,0,0,0,0.1c0,0,0,0-0.1,0C84.3,82.4,84.3,82.4,84.3,82.3z"/>
			</g>
			<g>
				<path class="st0" d="M84.8,82.4v0.1c-0.1,0-0.2,0-0.3,0c0-0.1,0-0.1,0.1-0.2C84.6,82.4,84.7,82.4,84.8,82.4z"/>
			</g>
			<g>
				<path class="st0" d="M84.1,82.4c0.2,0,0.1,0,0.2,0.2c-0.1,0-0.2,0-0.2,0.1c0,0,0,0,0-0.1c0,0,0,0,0.1,0
					C84.1,82.5,84.1,82.4,84.1,82.4z"/>
			</g>
			<g>
				<path class="st0" d="M85.7,82.4L85.7,82.4c0.1,0.1,0.1,0.1,0,0.2c0,0,0,0,0.1,0c0,0.2,0,0.3,0,0.5c0,0,0,0-0.1,0
					c0,0.1,0,0.2-0.1,0.3h-0.1c0-0.3,0.1-0.3,0.1-0.6c-0.1,0-0.1-0.1-0.2-0.1c0-0.1,0-0.1,0.1-0.2h-0.1c0,0,0,0,0.1,0c0,0,0,0,0-0.1
					C85.5,82.4,85.5,82.4,85.7,82.4c-0.1,0.1-0.1,0.1-0.1,0.2c0.1,0.1,0,0,0.1,0.1h0.1C85.7,82.7,85.7,82.6,85.7,82.4z"/>
			</g>
			<g>
				<path class="st0" d="M85.2,82.5c0.1,0.1,0,0,0.1,0.1C85.3,82.6,85.3,82.6,85.2,82.5L85.2,82.5z"/>
			</g>
			<g>
				<path class="st0" d="M82.4,82.4c0.1,0.1,0,0,0,0.1l0,0C82.4,82.5,82.4,82.5,82.4,82.4z"/>
			</g>
			<g>
				<path class="st0" d="M84.8,82.5c0.2,0,0.2,0,0.3,0.2c0,0,0,0-0.1,0l0,0C84.9,82.7,84.8,82.6,84.8,82.5z"/>
			</g>
			<g>
				<path class="st0" d="M84.2,82.5c0.4,0,0.4,0.2,0.7,0.2c0,0.1,0,0.2,0,0.3H85c0,0.1,0,0.1,0,0.2h0.1c0,0,0,0.1-0.1,0.1
					c0.1,0,0.1,0.1,0.2,0.1c0,0.1,0,0.1,0,0.2c0,0,0.1,0,0.1,0.1s0,0.1,0,0.2c-0.2-0.1-0.3-0.2-0.4-0.4c0,0,0,0-0.1,0
					c0,0,0-0.1,0.1-0.1c-0.1,0-0.1,0-0.2-0.1v-0.1c0,0,0,0-0.1,0v-0.1c0,0,0,0-0.1,0c0-0.1,0-0.1,0-0.2c0,0-0.1,0-0.1-0.1v-0.1
					c0,0,0,0-0.1,0C84.3,82.7,84.3,82.7,84.2,82.5C84.3,82.6,84.2,82.6,84.2,82.5c-0.1,0-0.1,0-0.1-0.1c-0.1,0-0.1,0-0.2,0
					C84.2,82.6,84.2,82.6,84.2,82.5z"/>
			</g>
			<g>
				<path class="st0" d="M83.5,83L83.5,83c0.1-0.1,0.1-0.3,0.2-0.4c-0.1,0-0.1,0-0.2,0c0,0,0,0,0,0.1c0,0,0,0,0.1,0
					C83.6,82.8,83.6,82.9,83.5,83z"/>
			</g>
			<g>
				<path class="st0" d="M82.1,82.6L82.1,82.6C82.1,82.7,82.1,82.7,82.1,82.6c0.1,0.1,0.1,0.2,0.1,0.2s0,0,0.1,0c0,0,0,0,0-0.1
					c0,0,0,0,0.1,0c0,0,0,0,0-0.1C82.2,82.7,82.2,82.6,82.1,82.6z"/>
			</g>
			<g>
				<path class="st0" d="M83.2,82.6c0,0.1,0,0.1,0.1,0.2h0.1c0,0,0,0,0-0.1C83.3,82.7,83.2,82.7,83.2,82.6z"/>
			</g>
			<g>
				<path class="st0" d="M82.5,82.8v0.1c0,0,0,0,0.1,0C82.6,82.8,82.6,82.8,82.5,82.8C82.6,82.8,82.6,82.8,82.5,82.8z"/>
			</g>
			<g>
				<path class="st0" d="M81,82.8v0.1c0,0,0,0,0.1,0C81.1,82.9,81.1,82.9,81,82.8C81.1,82.8,81,82.8,81,82.8z"/>
			</g>
			<g>
				<path class="st0" d="M85.1,82.9c0.1,0.1,0,0,0.1,0.1c0,0,0,0-0.1,0S85,83,85.1,82.9z"/>
			</g>
			<g>
				<path class="st0" d="M85.8,83.1c0.1,0.1,0,0,0,0.1c0,0,0,0-0.1,0C85.8,83.1,85.8,83.1,85.8,83.1z"/>
			</g>
			<g>
				<path class="st0" d="M83.4,83.1c-0.1,0-0.1,0-0.2,0l0,0c0.1,0,0.1,0,0.2,0.1C83.4,83.2,83.4,83.1,83.4,83.1z"/>
			</g>
			<g>
				<path class="st0" d="M81,83.1c0.1,0.1,0.1,0.1,0.1,0.1C81.1,83.1,81,83.1,81,83.1z"/>
			</g>
			<g>
				<path class="st0" d="M81.5,83.1v0.1c0,0,0,0,0.1,0C81.6,83.2,81.6,83.1,81.5,83.1c0.1,0.1,0.1,0.1,0.1,0.1
					C81.6,83.1,81.6,83.1,81.5,83.1z"/>
			</g>
			<g>
				<path class="st0" d="M81.3,83.2c0,0,0,0.1-0.1,0.1c0,0,0.1,0,0.1,0.1s0,0.1,0.1,0.2c0,0,0,0,0.1,0
					C81.4,83.4,81.4,83.2,81.3,83.2z"/>
			</g>
			<g>
				<path class="st0" d="M82.2,83.2c0,0,0.1,0,0.1,0.1c0,0,0,0,0,0.1h-0.1c0,0,0,0.1-0.1,0.1C82.1,83.3,82.2,83.2,82.2,83.2z"/>
			</g>
			<g>
				<path class="st0" d="M82.7,83.3c-0.1,0-0.1,0-0.2-0.1l0,0C82.6,83.3,82.6,83.3,82.7,83.3C82.6,83.4,82.6,83.4,82.7,83.3
					L82.7,83.3z"/>
			</g>
			<g>
				<path class="st0" d="M83.4,83.3v0.1c0,0,0,0,0.1,0C83.5,83.4,83.5,83.3,83.4,83.3C83.5,83.3,83.4,83.3,83.4,83.3z"/>
			</g>
			<g>
				<path class="st0" d="M82.1,83.6c-0.2-0.1-0.1,0-0.1-0.2c0,0,0,0,0.1,0C82.1,83.5,82.1,83.5,82.1,83.6z"/>
			</g>
			<g>
				<path class="st0" d="M83.1,83.5L83.1,83.5c-0.1,0-0.1,0-0.1,0.1C83,83.5,83,83.5,83.1,83.5C83,83.6,83,83.6,83,83.6s0,0,0.1,0
					V83.5z"/>
			</g>
			<g>
				<path class="st0" d="M86,83.6c0.1,0,0.1,0,0.2,0.1c-0.1,0.1,0,0-0.1,0.1c0,0,0,0,0,0.1c0,0,0,0-0.1,0c0,0,0,0,0-0.1
					C86,83.7,86.1,83.7,86,83.6z"/>
			</g>
			<g>
				<path class="st0" d="M83.3,83.7c0,0.1,0,0.1,0,0.2c0,0,0,0,0.1,0c0,0.1,0,0.1,0,0.2c0,0,0,0,0.1,0c0-0.1,0-0.1,0-0.2
					c0,0,0,0-0.1,0c0,0,0-0.1,0.1-0.1C83.5,83.8,83.5,83.8,83.3,83.7C83.3,83.6,83.4,83.7,83.3,83.7z"/>
			</g>
			<g>
				<path class="st0" d="M83.7,83.7v0.1c0,0,0,0,0.1,0C83.8,83.7,83.8,83.7,83.7,83.7C83.8,83.7,83.8,83.7,83.7,83.7z"/>
			</g>
			<g>
				<path class="st0" d="M81.6,83.7c0,0.1,0,0.1,0,0.2c0,0,0,0,0.1,0C81.6,83.8,81.6,83.7,81.6,83.7L81.6,83.7z"/>
			</g>
			<g>
				<path class="st0" d="M86.1,83.8c0.1,0,0.1,0,0.2,0.1c0,0,0,0,0,0.1c0,0,0,0-0.1,0c-0.1,0.1,0,0-0.1,0.1
					C86.1,83.9,86.1,83.8,86.1,83.8z"/>
			</g>
			<g>
				<path class="st0" d="M85,83.9c-0.1,0.1-0.1,0.1-0.1,0.3c-0.1,0.1,0,0-0.1,0.1c0,0,0,0,0.1,0v-0.1c0.1,0,0.2-0.1,0.2-0.1
					s0,0-0.1,0C85.1,84,85.1,83.9,85,83.9C85.1,83.9,85,83.9,85,83.9z"/>
			</g>
			<g>
				<path class="st0" d="M85.9,83.9L85.9,83.9c0.1,0,0.1,0,0.1,0.1C86,83.9,85.9,83.9,85.9,83.9C86,84,86,84,86,84
					C85.9,83.9,85.9,84,85.9,83.9z"/>
			</g>
			<g>
				<path class="st0" d="M86.4,84.1V84c0,0,0,0,0.1,0C86.4,84,86.4,84,86.4,84.1c0.1-0.1,0.1-0.1,0.1-0.1
					C86.4,84.1,86.5,84,86.4,84.1z"/>
			</g>
			<g>
				<path class="st0" d="M81.6,83.9c0,0.1,0,0.1,0.1,0.2l0,0c0,0,0,0,0.1,0V84C81.7,84,81.6,83.9,81.6,83.9z"/>
			</g>
			<g>
				<path class="st0" d="M82.5,83.9c0.1,0.1,0,0,0.1,0.1c0,0,0,0-0.1,0V83.9z"/>
			</g>
			<g>
				<path class="st0" d="M84.1,84L84.1,84L84.1,84C84,84.1,84,84.1,84.1,84C84.1,84.1,84.1,84.1,84.1,84c0,0.1,0,0.1,0,0.1V84z"/>
			</g>
			<g>
				<path class="st0" d="M82.1,84c0,0.1,0.1,0.1,0.1,0.3c-0.1,0-0.1,0-0.2-0.1C82,84.2,82,84.1,82.1,84C82,84.1,82,84.1,82,84.1
					C81.9,84,82.1,84,82.1,84z"/>
			</g>
			<g>
				<path class="st0" d="M83.8,84.1c0,0,0,0.1-0.1,0.2c0,0,0,0,0.1,0C83.8,84.3,83.8,84.3,83.8,84.1C83.9,84.2,83.9,84.2,83.8,84.1
					C83.9,84.1,83.9,84.1,83.8,84.1z"/>
			</g>
			<g>
				<path class="st0" d="M84.4,84.2c0,0.1,0,0.2-0.1,0.3c0,0,0,0,0.1,0c0-0.2,0.1-0.2,0.2-0.3C84.6,84.2,84.6,84.2,84.4,84.2
					C84.4,84.2,84.5,84.1,84.4,84.2z"/>
			</g>
			<g>
				<path class="st0" d="M83.4,84.1c0.1,0.1,0,0,0.1,0.1C83.4,84.1,83.5,84.2,83.4,84.1z"/>
			</g>
			<g>
				<path class="st0" d="M84.1,84.2c0.1,0.1,0,0,0.1,0.1C84.2,84.1,84.2,84.2,84.1,84.2z"/>
			</g>
			<g>
				<path class="st0" d="M81.7,84.2v0.1c0,0,0,0,0.1,0C81.8,84.2,81.8,84.2,81.7,84.2C81.8,84.2,81.7,84.2,81.7,84.2z"/>
			</g>
			<g>
				<path class="st0" d="M85.2,84.2c0,0.3,0,0.5-0.1,0.6c0,0,0,0,0.1,0c0-0.1,0-0.1,0.1-0.1c0,0,0,0,0,0.1c0,0,0,0,0.1,0
					c0,0,0,0,0.1-0.1v-0.1C85.3,84.5,85.3,84.5,85.2,84.2c0.2,0,0.1,0.1,0.2,0C85.3,84.2,85.3,84.2,85.2,84.2z"/>
			</g>
			<g>
				<path class="st0" d="M84.7,84.6v0.1c0,0,0,0,0.1,0C84.7,84.6,84.7,84.6,84.7,84.6c0.1-0.1,0.1,0.2,0.1,0.2s0,0-0.1,0
					c0,0.1,0,0.1,0,0.2c0,0,0,0,0.1,0c0-0.3,0.2-0.3,0.3-0.5L85,84.6c-0.1,0-0.1,0-0.2-0.1c0,0,0.1,0.1,0,0.2
					C84.8,84.7,84.8,84.7,84.7,84.6L84.7,84.6C84.8,84.6,84.7,84.6,84.7,84.6z"/>
			</g>
			<g>
				<path class="st0" d="M86.7,84.6v-0.1c-0.1,0-0.1,0-0.2-0.1c0,0.2-0.1,0.3-0.2,0.5c0,0,0,0,0.1,0c0,0,0,0,0-0.1
					C86.6,84.8,86.4,84.7,86.7,84.6z"/>
			</g>
			<g>
				<path class="st0" d="M82,84.5v-0.1V84.5c-0.1-0.1-0.1-0.1-0.2-0.1c0,0,0,0,0,0.1C81.8,84.5,81.8,84.5,82,84.5
					C82,84.6,81.9,84.5,82,84.5z"/>
			</g>
			<g>
				<path class="st0" d="M83.6,84.5c0,0.1,0,0.1,0.1,0.2c0,0,0,0,0.1,0v-0.1C83.6,84.5,83.6,84.5,83.6,84.5z"/>
			</g>
			<g>
				<path class="st0" d="M86.1,84.5c0,0.1-0.1,0.1-0.1,0.3c0,0,0,0,0.1,0c0,0,0,0,0-0.1c0,0,0,0,0.1,0
					C86.2,84.7,86.2,84.7,86.1,84.5C86.2,84.6,86.2,84.6,86.1,84.5C86.1,84.6,86.2,84.6,86.1,84.5C86.2,84.5,86.1,84.5,86.1,84.5z"
					/>
			</g>
			<g>
				<path class="st0" d="M83,84.9c0-0.1,0.1-0.1,0.1-0.1c0-0.1,0-0.2,0-0.3c0,0,0,0,0.1,0c0,0.1,0,0.1,0,0.2c0,0,0,0,0.1,0
					c0,0.1,0.1,0,0,0.1C83.1,84.9,83.1,84.9,83,84.9z"/>
			</g>
			<g>
				<path class="st0" d="M84.6,84.7c0,0.1-0.1,0.1-0.1,0.2l0,0c0,0,0,0,0,0.1c0,0,0,0,0.1,0C84.6,84.9,84.6,84.8,84.6,84.7
					L84.6,84.7z"/>
			</g>
			<g>
				<path class="st0" d="M85.9,85v0.1c0,0,0,0,0.1,0C86,85,86,85,85.9,85C86,85,86,85,85.9,85z"/>
			</g>
			<g>
				<path class="st0" d="M82.3,84.9C82.3,84.9,82.3,85,82.3,84.9C82.3,85,82.3,85,82.3,84.9C82.1,85,82.4,85,82.4,85
					S82.4,85,82.3,84.9c0.1,0.1,0.1,0.1,0.1,0.1C82.4,84.9,82.4,85,82.3,84.9z"/>
			</g>
			<g>
				<path class="st0" d="M84.9,85c0.1,0.1,0,0.1,0.2,0.1c0,0,0,0,0-0.1C85,85,84.9,85,84.9,85z"/>
			</g>
			<g>
				<path class="st0" d="M85.6,85c0,0.1,0,0.1,0.1,0.2c0,0,0,0,0.1,0c0-0.1,0-0.1,0-0.2C85.7,85,85.7,85,85.6,85z"/>
			</g>
			<g>
				<path class="st0" d="M83.3,85c0.1,0.1,0,0,0.1,0.1c0,0,0,0-0.1,0V85z"/>
			</g>
			<g>
				<path class="st0" d="M84.8,85.4c0-0.1,0-0.1,0-0.2c0,0,0.1,0,0.1-0.1h-0.1c0,0,0,0,0-0.1c0,0,0,0-0.1,0c0,0.1,0,0.2-0.1,0.3
					c0,0,0,0,0.1,0C84.7,85.4,84.6,85.3,84.8,85.4z"/>
			</g>
			<g>
				<path class="st0" d="M86.9,85.4L86.9,85.4c0.1-0.1,0.1-0.2,0.1-0.3c0,0,0,0-0.1,0v0.1c0,0,0,0-0.1,0
					C86.9,85.3,86.9,85.4,86.9,85.4z"/>
			</g>
			<g>
				<path class="st0" d="M86.4,85.3v0.1h0.1L86.4,85.3L86.4,85.3z"/>
			</g>
			<g>
				<path class="st0" d="M83.2,85.3c0,0.1,0,0.1,0,0.2c0.1,0,0.1,0,0.2,0c0-0.1,0-0.1,0.1-0.2C83.4,85.3,83.4,85.3,83.2,85.3
					c0.1,0,0.1-0.1,0.2-0.1c0,0,0,0-0.1,0C83.2,85.3,83.3,85.3,83.2,85.3z"/>
			</g>
			<g>
				<path class="st0" d="M84.1,85.3v0.1c-0.1,0-0.1,0-0.2,0c0,0,0,0,0,0.1c0,0,0,0-0.1,0c0,0.1,0,0.2,0,0.3c0.1,0,0.1,0,0.2,0
					c0,0,0,0,0-0.1c0,0,0,0,0.1,0c0,0,0,0,0-0.1c0,0,0,0-0.1,0c0,0,0,0,0-0.1c0,0,0,0,0.1,0c0.1-0.1,0.1-0.1,0.1-0.3
					C84.2,85.3,84.1,85.3,84.1,85.3z"/>
			</g>
			<g>
				<path class="st0" d="M84.9,85.3v0.1c0,0,0,0,0.1,0C85,85.4,85,85.4,84.9,85.3C85,85.3,84.9,85.3,84.9,85.3z"/>
			</g>
			<g>
				<path class="st0" d="M86.9,85.5c0,0.1,0,0.1,0.1,0.3c0,0,0,0,0.1,0c0-0.1,0-0.2,0-0.2C87,85.5,86.9,85.5,86.9,85.5z"/>
			</g>
			<g>
				<path class="st0" d="M83.6,85.5c0,0,0,0.1,0.1,0.1c0,0,0,0,0.1,0c0,0,0,0,0-0.1c0,0,0,0,0.1,0c0,0,0,0,0-0.1
					C83.7,85.6,83.7,85.5,83.6,85.5z"/>
			</g>
			<g>
				<path class="st0" d="M84.2,85.6v0.1c0,0,0,0,0.1,0C84.2,85.6,84.2,85.6,84.2,85.6L84.2,85.6z"/>
			</g>
			<g>
				<path class="st0" d="M86,85.6L86,85.6c-0.1,0.1-0.1,0.1-0.2,0.2c-0.1,0-0.2,0.1-0.2,0.2v0.1c0,0,0,0,0.1,0c0-0.1,0-0.1,0.1-0.1
					l0,0h0.1C85.9,85.8,85.9,85.8,86,85.6z"/>
			</g>
			<g>
				<path class="st0" d="M84.5,85.6v0.1c0,0,0,0,0.1,0C84.5,85.7,84.5,85.7,84.5,85.6L84.5,85.6z"/>
			</g>
			<g>
				<path class="st0" d="M83.2,85.8L83.2,85.8c0.1,0,0.1,0,0.1-0.1C83.3,85.7,83.3,85.7,83.2,85.8c0.1-0.1,0.1-0.1,0.1-0.1
					s0,0-0.1,0C83.2,85.7,83.2,85.7,83.2,85.8z"/>
			</g>
			<g>
				<path class="st0" d="M85.1,85.7v0.1c0.1,0,0.1,0,0.2,0.1l0,0c-0.1-0.1,0,0,0-0.1C85.2,85.7,85.1,85.7,85.1,85.7z"/>
			</g>
			<g>
				<path class="st0" d="M86.7,85.9c0.1,0,0.2,0,0.2,0.1c0-0.1,0-0.1,0-0.2c-0.1,0-0.1,0-0.2-0.1C86.8,85.8,86.8,85.8,86.7,85.9
					c0,0-0.1,0.1-0.1,0.3c0,0,0,0,0.1,0l0,0c0,0,0,0,0.1,0C86.8,86.1,86.8,86,86.7,85.9z"/>
			</g>
			<g>
				<path class="st0" d="M85.4,85.8c0.1,0.1,0,0,0.1,0.1C85.5,85.8,85.5,85.8,85.4,85.8z"/>
			</g>
			<g>
				<path class="st0" d="M83.3,85.9V86h0.1C83.4,85.9,83.4,85.9,83.3,85.9c0-0.1-0.1-0.1-0.1-0.1S83.2,85.8,83.3,85.9
					C83.3,85.9,83.3,85.9,83.3,85.9z"/>
			</g>
			<g>
				<path class="st0" d="M85.2,85.9c0,0,0,0.1-0.1,0.1C85.1,86,85.3,85.9,85.2,85.9L85.2,85.9z"/>
			</g>
			<g>
				<path class="st0" d="M83.6,85.9c0,0.1,0.1,0.1,0.2,0.1c0,0,0,0.1-0.1,0.2c0,0,0,0,0.1,0v-0.1c0.1,0,0.1,0,0.1-0.1c0,0,0,0-0.1,0
					c0,0,0,0,0-0.1L83.6,85.9C83.7,86,83.7,85.9,83.6,85.9z"/>
			</g>
			<g>
				<path class="st0" d="M85.4,86c0.1,0.1,0,0,0.1,0.1C85.5,86,85.5,86.1,85.4,86z"/>
			</g>
			<g>
				<path class="st0" d="M83.5,86L83.5,86L83.5,86c0,0.1-0.1,0.2-0.1,0.3c0.1,0,0.1,0.1,0.2,0.1C83.4,86.2,83.5,86.4,83.5,86z"/>
			</g>
			<g>
				<path class="st0" d="M86.9,86.2v0.1c0,0,0,0,0.1,0C87,86.2,87,86.2,86.9,86.2C87,86.2,86.9,86.2,86.9,86.2z"/>
			</g>
			<g>
				<path class="st0" d="M85.5,86.3v-0.1c-0.1,0-0.1,0-0.2-0.1c0,0,0,0,0,0.1c0,0,0,0-0.1,0c0,0,0,0,0,0.1l0,0l0,0
					C85.3,86.3,85.4,86.3,85.5,86.3z"/>
			</g>
			<g>
				<path class="st0" d="M86.2,86.2v0.1c0,0,0,0,0.1,0C86.3,86.3,86.3,86.2,86.2,86.2C86.3,86.2,86.3,86.2,86.2,86.2z"/>
			</g>
			<g>
				<path class="st0" d="M85.1,86.3c0,0.1,0,0.2,0.1,0.3c0.1,0,0.1,0,0.2-0.1c0,0.2,0.2,0.3,0.2,0.5c0.1,0,0.1,0,0.2,0
					c0,0,0,0,0-0.1c-0.1-0.1-0.2-0.2-0.2-0.4C85.4,86.4,85.4,86.4,85.1,86.3l0.1-0.1C85.2,86.3,85.2,86.3,85.1,86.3z"/>
			</g>
			<g>
				<path class="st0" d="M87.1,86.4c0,0,0,0.1-0.1,0.1c0.1,0,0.3,0,0.4,0.1l0,0c-0.1,0-0.1,0-0.2-0.1c0,0,0,0,0,0.1c0,0,0,0-0.1,0
					c0,0,0-0.1-0.1-0.1C87.2,86.4,87.1,86.4,87.1,86.4z"/>
			</g>
			<g>
				<path class="st0" d="M86.3,86.4c0,0.1-0.1,0.1-0.1,0.2c0,0,0,0,0.1,0c0.1-0.1,0.1-0.1,0.2-0.2C86.4,86.4,86.5,86.5,86.3,86.4z"
					/>
			</g>
			<g>
				<path class="st0" d="M86.5,86.6c0,0.1-0.1,0.1-0.1,0.2C86.4,86.8,86.5,86.8,86.5,86.6v0.2c0,0,0,0,0.1,0c0.1,0.1-0.1,0.1,0,0.2
					c0,0,0-0.1,0-0.2c0,0,0,0-0.1,0C86.6,86.7,86.6,86.7,86.5,86.6C86.6,86.6,86.5,86.6,86.5,86.6z"/>
			</g>
			<g>
				<path class="st0" d="M87.1,86.6c0.1,0.1,0,0,0.1,0.1C87.1,86.6,87.2,86.6,87.1,86.6z"/>
			</g>
			<g>
				<path class="st0" d="M84.8,86.6v0.1c0,0,0,0,0.1,0C84.8,86.7,84.8,86.6,84.8,86.6L84.8,86.6z"/>
			</g>
			<g>
				<path class="st0" d="M87.5,86.7C87.4,86.7,87.4,86.7,87.5,86.7C87.4,86.8,87.6,86.7,87.5,86.7L87.5,86.7z"/>
			</g>
		</g>
	</g>
	<g>
		<path class="st0" d="M75.1,34.3c5-8.1-7-11.3-5.9-19.8c0.2-1.3,1.2-2.2,1.5-3.8l10,0.2c-0.9,1.7-1.4,3.7-1.4,5.6
			c-0.1,6.2,10.1,9.4,6.3,17.6L75.1,34.3z"/>
	</g>
	<g>
		<g>
			<path class="st0" d="M76.6,51L76.6,51C76.6,50.9,76.5,50.9,76.6,51C76.5,51,76.5,51,76.6,51z"/>
		</g>
		<g>
			<path class="st0" d="M80.6,51.4L80.6,51.4C80.6,51.3,80.5,51.3,80.6,51.4C80.5,51.4,80.4,51.4,80.6,51.4z"/>
		</g>
		<g>
			<path class="st0" d="M96.1,57.1C96.1,57.1,96.2,57.2,96.1,57.1C96.2,57.1,96.1,57.1,96.1,57.1c0-0.3,0-0.5,0.1-0.6c0,0,0,0-0.1,0
				c0,0,0,0,0-0.1c-0.1-0.1,0,0.1-0.1,0.1c0,0,0,0-0.1,0c0,0,0-0.1-0.1-0.1c0,0,0,0,0.1,0c0-0.1,0,0-0.1-0.1c0,0,0,0,0-0.1l0,0
				c0,0,0,0,0-0.1l0,0c0,0,0,0,0-0.1c0,0-0.1,0-0.1-0.1c0,0.1,0,0.1,0,0.2c0,0,0,0,0.1,0v0.1c0,0,0,0-0.1,0c0,0,0,0,0-0.1
				c-0.1,0-0.1,0-0.1-0.1c0,0,0,0-0.1,0c0-0.1,0-0.2,0.1-0.3c-0.1,0-0.1-0.1-0.2-0.1c0,0,0,0,0-0.1l0,0v0.1c-0.1,0-0.2-0.1-0.2-0.1
				l-0.1,0.1c0-0.1-0.1-0.2-0.2-0.2v-0.1c0.1,0,0,0,0.1-0.1c-0.2-0.1-0.2-0.2-0.6-0.2c0-0.1,0-0.1,0-0.2c-0.1,0-0.1,0-0.2,0v-0.1
				c-0.1,0-0.2,0-0.3-0.1v-0.1c-0.1,0-0.1,0-0.2,0v-0.1c-0.1,0-0.1-0.1-0.2-0.1c0,0,0,0,0-0.1c-0.1-0.1-0.1,0-0.2-0.1
				c0,0-0.2,0-0.1,0.1c0,0,0,0,0.1,0c0,0,0,0,0,0.1c-0.1,0-0.1,0-0.2,0v-0.1c0-0.1-0.1,0.1-0.1,0.1c-0.1,0-0.1,0-0.2-0.1
				c0-0.1,0-0.1-0.1-0.2c-0.1,0-0.1-0.1-0.1-0.1c-0.1,0-0.2,0-0.3,0c0,0,0-0.1-0.2-0.1c0-0.1-0.1-0.1-0.1-0.2
				c-0.2,0-0.1,0.1-0.4,0.1v-0.1c-0.1,0-0.1,0-0.2,0v-0.1c-0.1,0-0.1-0.1-0.1-0.1c-0.1,0-0.2,0-0.3,0c0,0,0,0,0-0.1
				c-0.1,0-0.2,0.1-0.4,0c0,0,0,0,0-0.1c-0.1,0-0.1,0-0.2,0c0,0,0,0,0-0.1l0,0c0,0,0,0,0,0.1h-0.1c0,0,0,0,0,0.1c-0.2,0-0.4,0-0.6,0
				c0,0,0,0,0,0.1c0,0-0.1,0-0.2,0c0,0.1-0.1,0.1-0.1,0.2c0,0-0.1,0-0.1-0.1v0.1c0,0,0,0-0.1,0c0,0,0,0,0,0.1c0,0,0,0-0.1,0
				c0,0,0,0,0-0.1c0,0,0,0-0.1,0c0,0.1-0.1,0-0.2,0c0,0,0,0,0,0.1c-0.1,0-0.1,0-0.2,0c0,0,0,0,0,0.1c-0.1,0-0.1,0-0.2,0
				c0,0,0,0.1-0.1,0.1C88.1,54,88,53.8,87.9,54c0,0,0,0-0.1,0c0,0,0,0,0,0.1l0,0h-0.1l0,0c0-0.1,0-0.1,0-0.2c-0.1,0-0.3,0-0.4,0
				c0,0,0,0,0-0.1c0,0,0,0-0.1,0s0.1,0.1-0.1,0.1c0,0,0,0,0-0.1c-0.1-0.1-0.1-0.1-0.3-0.2c0,0,0,0,0,0.1h-0.1c0.1,0.1,0,0,0.1,0.1
				c0,0,0,0,0,0.1c-0.1,0-0.2,0-0.2,0s0,0,0-0.1c0,0-0.1,0-0.1-0.1h0.1c0,0,0,0,0-0.1c-0.1,0-0.2,0-0.3,0c-0.1,0,0-0.1-0.1-0.1v0.1
				c0,0-0.1,0-0.1-0.1c0,0,0,0,0,0.1H86c0,0,0-0.1,0.1-0.1H86v-0.1c-0.1,0-0.2,0-0.3-0.1c0,0,0,0,0,0.1c-0.1,0-0.2,0-0.3,0
				c0,0.1,0,0.1,0,0.2c-0.1,0-0.1,0-0.2,0c0,0,0,0,0-0.1l0,0c0,0,0,0,0-0.1l0,0c0,0,0,0-0.1,0l0,0c0,0,0,0-0.1,0h-0.1
				c0,0.1,0,0.1,0,0.1c-0.1,0-0.1-0.2-0.3-0.1c0,0,0,0,0,0.1c-0.1,0-0.2,0-0.3,0c0,0,0,0,0,0.1c0,0,0,0,0.1,0c0,0,0,0,0,0.1l0,0
				h-0.1c0-0.1,0-0.1,0-0.2l0,0c0,0,0,0,0-0.1c0,0,0,0-0.1,0v-0.1c-0.6-0.1-0.6-0.7-1.2-0.7c0-0.2-0.1-0.2-0.2-0.4c0,0,0,0-0.1,0
				c0,0.1,0.1,0.1,0.1,0.2c-0.1,0-0.1-0.1-0.2-0.1c0,0,0,0-0.1,0l0,0c0,0-0.1,0-0.1-0.1l0,0c0,0,0,0-0.1,0c0,0,0,0,0-0.1l0,0
				c0.1,0,0.1,0,0.2,0.1c0,0,0,0,0-0.1l0.1-0.1h-0.1c-0.1-0.1-0.3-0.3-0.4-0.4c-0.1,0-0.1,0-0.2,0c0,0.1,0,0.1,0,0.2
				c0.1,0,0.1,0,0.1,0s0,0,0.1,0c0,0,0,0.1-0.1,0.1h0.1V52L82,51.9c-0.1,0-0.2-0.1-0.3-0.1c0,0,0,0-0.1-0.1c0,0,0,0,0-0.1
				c0,0,0,0-0.1,0l-0.1-0.1l0,0h-0.1l0,0l0,0l0,0c-0.1,0-0.1,0-0.2-0.1l0,0l0,0c0,0,0-0.1-0.1-0.1h-0.1l0,0c0,0,0,0,0.1,0
				c0.1-0.1,0,0,0.1,0c0,0,0,0,0,0.1c0.1,0,0.1,0,0.2,0v-0.1c-0.1,0-0.1,0-0.2-0.1c0,0,0,0,0-0.1H81c0,0,0,0,0-0.1
				c-0.1,0-0.1,0-0.2,0v-0.1c-0.1,0-0.2,0-0.2,0s0,0,0-0.1c-0.1,0-0.1,0-0.2,0l0,0c-0.1,0-0.1,0-0.2,0c0,0,0-0.1-0.1-0.1H80
				c-0.1,0-0.2,0-0.2-0.1v0.1c-0.1,0-0.1-0.1-0.3-0.1h-0.1c0,0,0,0,0-0.1c-0.1,0-0.1,0-0.2-0.1c-0.1,0.1-0.3,0.1-0.4,0.2
				c0,0.1,0,0.1,0.2,0.2c0,0-0.1,0-0.1,0.1c-0.1,0-0.2,0-0.3,0c0-0.1,0-0.1,0-0.2c0,0,0,0-0.1,0c0,0,0,0,0,0.1c-0.1,0-0.1,0-0.2-0.1
				c0,0,0,0,0,0.1c-0.2,0.1-0.2,0.1-0.5,0.1V51c-0.1,0-0.1,0-0.2,0c0,0,0,0,0,0.1c-0.1,0-0.2,0-0.3,0c0,0,0,0,0-0.1
				c-0.1,0-0.2,0-0.2,0s0,0,0-0.1c-0.2,0-0.5,0-0.7,0c0,0,0-0.1-0.1-0.1c-0.2,0-0.3,0-0.4,0c0,0,0,0,0-0.1h-0.1c0,0,0,0,0-0.1
				c-0.1,0-0.1,0-0.2,0c0,0,0,0,0-0.1h-0.1c0,0,0,0,0-0.1c-0.1,0-0.3,0-0.4-0.1c0-0.1,0,0-0.1-0.1c0,0,0,0,0-0.1c-0.1,0-0.1,0-0.2,0
				c0,0,0,0,0-0.1h-0.1l0,0c-0.1,0-0.1,0.1-0.1,0.1c-0.1,0-0.1,0-0.2,0L74.3,50c0.1,0,0.1,0,0.2,0c0,0,0,0,0-0.1c0.1,0,0,0,0.1-0.1
				c-0.1,0-0.1,0-0.2-0.1c0,0,0,0,0,0.1c0,0,0,0-0.1,0c0-0.1,0-0.1,0-0.2c0,0,0,0-0.1,0c0,0,0,0,0-0.1c0,0-0.1,0-0.1,0.1
				c0,0,0-0.1-0.1-0.1c0,0,0,0-0.1,0c0,0,0,0,0,0.1c-0.1,0,0,0-0.1-0.1c-0.1,0-0.1,0-0.1,0.1l-0.4-0.1c0,0,0,0,0-0.1
				c-0.1,0-0.1,0-0.2-0.2c-0.3-0.1-0.7-0.1-1.1-0.2c0,0,0,0,0,0.1c-0.2,0-0.3,0-0.4,0.1c0,0,0,0.1-0.1,0.1h-0.1
				c-0.1,0.1-0.2,0.2-0.3,0.4c-0.1,0,0-0.1-0.1-0.1c0,0.1,0,0.1-0.1,0.2c-0.1,0-0.1,0-0.2,0c0,0,0,0,0,0.1c-0.1,0-0.2,0-0.3,0
				c0,0.1,0,0.1,0,0.1l0,0c-0.1,0-0.6-0.2-0.7-0.1c0,0,0,0,0,0.1c0,0,0,0-0.1,0c0,0,0-0.1-0.1-0.1s-0.1,0-0.2,0.1
				c0-0.1-0.1-0.1-0.1-0.2c-0.3-0.1-1,0.1-1.1,0.1V50c-0.2,0-0.3,0.1-0.5,0.1c0,0-0.1,0-0.1-0.1c0,0,0,0,0,0.1c-0.3,0-0.5,0-0.8,0
				c0,0,0,0,0,0.1c-0.1,0-0.2,0-0.2,0s0,0,0,0.1c-0.1,0-0.2,0-0.2,0s0,0,0,0.1h-0.1c0,0,0,0,0,0.1c-0.1,0-0.3,0-0.4,0
				c0,0,0,0.1-0.1,0.1s-0.1,0-0.2,0l-0.1,0.1c0,0.1,0,0.1,0,0.2c-0.1,0-0.1,0-0.2,0V51c-0.1,0-0.1,0-0.2,0c0,0.1-0.1,0.3-0.1,0.4
				c-0.1,0-0.1,0-0.2,0c-0.1,0.3,0,0.1-0.2,0.3c0,0,0,0-0.1,0l0.2,0.1c0,0.1-0.1,0.1-0.1,0.2c0,0,0,0,0.1,0c0,0,0,0.1-0.1,0.1h0.1
				v0.1h-0.1c0-0.1,0-0.1,0-0.2c0,0,0,0-0.1,0c0-0.1,0-0.2,0.1-0.3c0,0,0,0-0.1,0v-0.1c0,0,0,0-0.1,0c0,0.1,0,0.2,0,0.4h-0.1
				c0,0.1,0,0.2-0.1,0.4c0,0,0,0-0.1,0c0,0.2,0,0.3,0,0.5c-0.5,0.1-1.1,0.6-1.3,1.1c-0.1,0-0.1,0-0.2,0v0.1c-0.1,0-0.1,0-0.2,0
				c-0.1,0.1-0.2,0.2-0.3,0.3c-0.1,0-0.1,0-0.2,0c0,0.2-0.1,0.3,0,0.4c-0.1,0.1-0.1,0.1-0.3,0.1c0.1,0.2,0.2,0.3,0.2,0.5l0,0l0,0
				c0,0,0,0.1,0,0.2c0.1,0,0,0,0.1,0.1l0,0c0,0,0,0,0,0.1h0.1c0,0.1-0.1,0.2-0.1,0.3c0.2,0,0.2,0.2,0.4,0.2h0.1l0,0
				c0.1,0,0.2,0,0.3,0.1c0,0,0,0,0,0.1h0.1l0,0c0.1,0,0.2,0,0.3,0l0,0c0,0,0,0,0,0.1c0,0,0,0,0.1,0c0,0,0,0,0,0.1l0,0l0,0h0.1
				c0,0.1-0.1,0.1,0,0.2h0.1c0,0,0,0.1,0.1,0.1l0,0c0,0,0,0,0.1,0l0,0c0,0.2,0,0.3,0,0.5c0,0,0,0,0.1,0c0,0.1-0.1,0.1-0.1,0.1
				c0,0.1,0,0.2,0,0.3c0,0,0,0,0.1,0c0-0.1,0-0.1,0-0.2c0,0.1,0.1,0.1,0.1,0c0,0.1,0,0.1,0,0.2l0,0l0,0V58c0,0,0,0-0.1,0l0,0h-0.1
				c-0.1,0,0.1,0.1,0.1,0.1l0,0l0,0c0,0.1,0,0.1,0,0.2c0,0,0,0-0.1,0v0.1c0,0,0,0-0.1,0v0.1l0,0l0,0l0,0c0,0-0.1,0-0.1,0.1
				s0,0.1,0,0.2l0,0l0,0l0,0l0,0c0-0.1,0-0.1,0-0.2h-0.1c0,0.1-0.1,0.2-0.1,0.4H63c0,0,0,0,0,0.1c0.1,0,0.1,0,0.2-0.1c0,0,0,0,0.1,0
				c0,0,0,0,0,0.1l0,0c0,0,0,0,0,0.1l0,0l0,0c0,0-0.1,0-0.1-0.1c0,0.1,0,0.1,0,0.2l0,0l0,0h-0.1L63,59.4c0,0.1,0,0.2,0,0.3
				c0,0,0,0-0.1,0c0,0.1,0,0.1,0,0.2c0,0,0,0,0.1,0V60c0,0,0.1,0,0.1,0.1S63,60.2,63,60.2c0,0.1,0,0.1,0.1,0.2c0,0.1,0,0,0.1,0.1
				v-0.1l0,0l0,0l0,0v0.1l0,0l0,0c0,0,0,0,0.1,0c0,0.1,0.1,0.2,0.1,0.3l0,0c0,0.1,0,0.1,0,0.2c0.1,0,0.1,0,0.2,0.1l0,0
				c0,0.1,0,0.1,0.1,0.2c0,0,0,0,0.1,0l0,0c0,0.1,0,0.2,0,0.3c0,0,0,0,0.1,0c0-0.1,0-0.2,0-0.3c0.1,0,0.2,0,0.2,0.1c0,0,0,0,0,0.1
				H64c0.1,0.2,0.1,0.5,0.2,0.7c0,0,0.1,0,0.1,0.1v0.1l0,0c0,0,0,0-0.1,0c0,0.1,0,0.1,0,0.2c0,0,0,0,0.1,0c0-0.1,0-0.1,0-0.2l0,0
				v0.1c0,0,0,0,0.1,0c0,0.1,0,0.2,0,0.3c0,0,0,0,0.1,0c0,0.1,0,0.1,0,0.2l0,0c0,0,0,0,0,0.1l0,0c0,0,0,0,0,0.1l0,0
				c0,0.1,0,0-0.1,0.1c0,0.1,0,0.1-0.1,0.2c0.1,0,0.1,0,0.2,0.1v0.1l0,0c0,0.1-0.1,0.2-0.1,0.2c0,0.1,0.2,0.3,0.2,0.3
				c0.1,0,0.1,0,0.2,0.1l0,0v0.1c0.1,0,0.1,0,0.1,0l0.1,0.1c0.2,0.1,0.5,0.2,0.8,0.3l0,0l0,0c0,0,0,0,0.1,0v0.1c0,0,0.1,0,0.2,0V65
				h0.1l0,0c0,0,0,0,0.1,0l0,0c0.1,0,0.1,0,0.2,0l0,0v0.1c0,0,0,0,0.1,0l0,0h0.1c0,0,0,0,0-0.1l0,0v0.1l0,0l0,0l0,0v0.1h0.1
				c0,0,0,0,0,0.1c0.1,0,0.2,0,0.3,0.1c0,0,0,0,0.1,0c0,0,0,0,0.1,0l0,0l0,0l0,0l0,0c0.2,0.1,0.3,0.2,0.5,0.3c0,0,0,0.1,0.1,0.2
				c0.1,0,0.1,0,0.1-0.1c0.1,0,0.1,0,0.2,0.1c0,0,0,0,0.1,0c0,0,0,0.1-0.1,0.1c0,0,0.1,0,0.2,0c0,0,0.1,0,0.1,0.1l0,0h0.1l0,0
				c0.1,0,0,0,0.1,0.2c0.1,0.1,0.4,0.3,0.5,0.3c0,0,0,0,0,0.1c0.1,0,0.1,0,0.2,0l-0.1,0.1c0,0.1,0,0.1,0.1,0.2
				c0.2,0,0.2,0.1,0.3,0.2v0.1c0.1,0,0.1,0,0.2,0l0,0l0,0c0.1,0.1,0.2,0.2,0.2,0.4c0.1,0,0.1,0,0.2,0l0,0c0,0.1,0.1,0.2,0.2,0.2l0,0
				l0,0l0,0l0,0c0,0,0,0.1-0.1,0.1c0,0,0,0,0.1,0c0,0.1,0.1,0.1,0.1,0.1l0.1,0.1l0,0l0,0l0,0c0,0,0,0.1,0.1,0.1s0.2,0,0.2,0v0.1h0.1
				c0,0,0,0.1,0.1,0.1l0,0c0,0,0,0,0,0.1c0.1,0,0.1,0,0.2,0.1l0,0l0,0l0,0c0.1,0.1,0.1,0.1,0.3,0.1c0,0,0,0,0,0.1
				c0.1,0,0.2,0,0.2-0.1v0.1c0,0,0,0,0.1,0l0,0c0,0,0,0,0.1,0c0,0,0,0,0,0.1c0.1,0,0.1,0,0.2,0c0,0,0,0,0-0.1l0,0l0,0l0,0l0,0
				c0.3,0,0.6,0,0.9,0c0,0,0,0,0,0.1h0.1l0,0h0.1v0.1h0.1c0,0,0,0,0.1,0v0.1c0,0,0,0,0.1,0l0,0c0,0,0,0,0.1,0c0.1,0.1,0,0.1,0.1,0.2
				c0,0.1,0,0.1,0,0.1s0,0,0,0.1c0.2,0,0.1,0.1,0.2,0l0,0c0,0,0,0,0.1,0l0,0c0,0.1-0.1,0.1-0.1,0.2l0,0l0,0l0,0h0.1
				c0,0.1,0,0-0.1,0.1l0,0h0.1c0,0,0,0,0,0.1s0,0.1,0,0.2h0.1c0,0,0,0,0,0.1s-0.1,0.3,0,0.4c0,0,0,0,0.1,0c0,0.1-0.1,0.1-0.1,0.1
				c0,0.2,0,0.3,0.1,0.4l0,0l0,0l0,0l0,0c0,0.1,0,0.2,0.1,0.3l0,0l0,0l0,0c0,0.1,0,0.2,0,0.3c0,0,0,0,0.1,0v0.1l0,0
				c0,0.1,0,0.2,0,0.2l0,0l0,0c0,0.1,0,0.1,0,0.2v0.1h0.1c0,0.1,0,0.1,0,0.2c0,0.1,0,0.3,0,0.4c0,0,0,0,0.1,0c0,0.1,0,0.1,0,0.2h0.1
				v0.1v0.1c0,0,0,0,0.1,0v0.1l0,0c0,0.1,0,0.2,0,0.3l0,0l0,0c0.1,0.1,0.2,0.1,0.3,0.2c0,0.1,0,0.2,0,0.3c0,0,0,0,0,0.1l0,0
				c0,0.1,0,0.1,0,0.2l0,0c0,0,0,0,0,0.1c0,0,0,0,0.1,0c0,0.1,0,0.1,0.1,0.2l0,0l0,0l0,0c0,0.1,0,0.1,0,0.2c0,0,0,0,0.1,0.1l0,0
				c0,0,0,0,0.1,0c0.1,0.1,0,0.1,0.1,0.1c0,0,0,0.1-0.1,0.1h0.1c0,0,0,0.1,0.1,0.1c0,0,0,0,0.1,0l0.1,0.1v0.1h0.1l0,0
				c0,0.1,0,0.1,0.1,0.2c0,0,0.1,0,0.1,0.1l0,0l0,0c0,0,0,0,0,0.1l0,0l0,0l0,0l0,0l0,0l0.1,0.1v0.1l0,0l0,0c0,0,0,0,0.1,0
				c0,0,0,0.2,0.1,0.1l0,0v0.1l0,0l0,0c0,0,0,0,0,0.1c0,0,0,0,0.1,0v0.1c0,0,0,0,0.1,0v0.1c0,0,0,0,0.1,0c0,0,0,0.1,0,0.2
				c0.1,0,0.1,0.1,0.2,0.1c0.2,0.3-0.1,0.7,0.2,1c0,0,0,0.2,0.1,0.2c0,0,0,0,0-0.1c0,0,0,0,0.1,0c-0.1,0.2,0,0.3,0,0.6h0.1
				c0,0.1,0,0.2,0,0.4h0.1c0,0.1,0,0.2-0.1,0.3h0.1l0,0c0,0.1,0.1,0.2,0.1,0.3c0,0,0,0,0.1,0c0,0.1,0,0.1-0.1,0.1
				c0,0.2,0,0.2,0.1,0.2c0,0,0,0,0,0.1l0,0c0,0.1,0,0.1,0,0.2h0.1c0,0.1,0.1,0.1,0.2,0.2c0,0,0,0,0.1,0v0.1l0,0l0,0l0,0l0,0
				c0,0,0,0,0,0.1h0.1l0,0c-0.1,0,0,0-0.1,0c0,0,0,0,0.1,0c0,0,0,0.2,0,0.1c0,0,0,0,0-0.1c0,0,0,0,0,0.1l0,0c0,0,0,0,0,0.1
				c0,0,0,0,0.1,0c0,0,0,0,0,0.1c0,0,0,0,0.1,0v0.1c0,0,0,0,0.1,0v0.1h0.1v0.1v0.1l0,0v0.1l0,0l0,0c0,0,0,0,0,0.1l0,0l0,0
				c0,0.1,0,0.2,0.1,0.2l0,0V82c0,0,0.1,0,0.1,0.1c0,0-0.1,0.1-0.1,0.2c0,0,0,0,0.1,0c0,0.1,0,0.2,0,0.3c0,0,0,0,0.1,0v0.1v0.1l0,0
				v0.1l0,0c0,0,0,0,0,0.1l0,0c0,0,0,0,0,0.1l0,0c0,0,0,0,0,0.1c0.1,0.1,0.2,0.2,0.2,0.4c0.1,0,0.2,0.1,0.3,0.1c0,0.1,0,0.1,0.1,0.2
				l0,0c0,0,0,0,0.1,0l0,0l0,0l0,0c0,0,0,0.1,0.1,0.1s0.1,0,0.2,0.2h0.1l0,0c0,0,0,0.1-0.1,0.2l0,0l0,0c0.1,0,0.1,0,0.1,0.1l0,0
				c0,0-0.1,0.1,0,0.2c0.1,0.1,0.1,0.1,0.2,0.2c0,0,0,0,0,0.1c0.1,0,0.2,0,0.2,0s0,0,0,0.1h0.1l0,0l0,0v0.1c0,0,0.1,0.1,0.2,0.1l0,0
				v0.1c0,0,0,0,0.1,0l0,0v0.1c0,0,0,0,0.1,0c0.1,0.2,0,0.1,0.2,0.1l0,0v0.1c0.1,0,0.1,0,0.2,0.1c0,0.1,0,0.1,0,0.2
				c0.1,0,0.2,0,0.2,0.1c0,0,0,0,0.1,0c0-0.1,0,0,0-0.1s0-0.1,0-0.2c0,0,0,0,0.1,0c0,0,0,0.1,0.1,0.2l0,0l0,0c0,0.1,0.1,0.2,0.2,0.2
				s0.1,0,0.2-0.1c0,0.1,0,0.1,0,0.2c0.1,0,0.3,0.1,0.4,0.2c0.1,0,0.3,0,0.4,0c0.2,0.1,0.2,0.1,0.4,0.1c0,0.1,0,0.1,0.1,0.2
				c0.1,0,0.2,0,0.2,0v-0.1c0.1,0,0.1,0,0.2,0.1c0,0,0,0,0,0.1h0.1c0,0,0,0,0,0.1c0.1,0,0.1,0,0.2,0c0,0,0,0,0,0.1
				c0.1,0,0.1,0,0.2,0c0,0,0,0,0,0.1c0.1,0,0.1,0,0.2,0l0,0c0.1,0,0.2,0,0.3,0c0,0,0,0,0,0.1l0,0v-0.1c0.1,0,0.2,0.1,0.2,0.2
				c0.3,0,0.4-0.2,0.7-0.3c0.1-0.1,0.1-0.3,0.2-0.4c0-0.1-0.1-0.3-0.1-0.4c0-0.1,0-0.1,0-0.2c0,0,0,0-0.1,0V86c0,0,0,0-0.1,0
				c0-0.2-0.1-0.3-0.1-0.5c0,0-0.1,0-0.1-0.1s0-0.2,0-0.3c0,0-0.1,0-0.1-0.1s0-0.1,0-0.2c0,0-0.1,0-0.1-0.1s0-0.2,0-0.3
				c0,0,0,0-0.1,0c0,0,0-0.1-0.1-0.2c0,0-0.1,0-0.1-0.1s0-0.1,0-0.2c-0.1,0-0.1-0.1-0.2-0.1c0-0.1,0-0.1,0-0.2c0,0,0,0-0.1,0v-0.1
				c0,0,0,0-0.1,0c-0.1-0.1,0-0.1-0.2-0.1c0-0.2-0.1-0.2-0.2-0.3c0,0,0,0-0.1,0c0-0.1,0-0.1,0-0.2c0,0-0.1-0.1-0.2-0.1
				c0-0.1,0-0.1,0-0.2c0,0-0.1,0-0.1-0.1s0-0.2-0.1-0.3c0,0-0.1,0-0.2,0c0-0.1,0-0.1,0-0.2c0,0,0,0,0.1,0c0-0.1,0-0.2,0-0.4
				c0,0,0,0-0.1,0c0-0.1,0-0.1,0-0.2c0,0,0,0-0.1,0c0,0,0-0.1,0.1-0.1h-0.1c0-0.1,0-0.2,0-0.3c0,0-0.2,0-0.1-0.1c0,0,0,0,0.1,0
				c0,0,0,0,0-0.1c-0.1,0-0.1,0-0.2-0.1c0-0.1,0-0.1,0.1-0.2c0,0-0.1,0-0.1-0.1s0-0.2,0-0.3s0-0.2,0.1-0.3c0-0.1-0.2-0.3-0.1-0.5
				c0,0,0,0,0.1,0c0-0.1-0.1-0.2,0-0.3c0,0,0.1,0,0.1-0.1c0-0.2-0.1-0.4-0.1-0.6c0,0,0.1,0,0.1-0.1s0-0.1,0-0.2c0-0.1,0-0.1,0.1-0.1
				l0,0l0,0l0,0h0.1c0,0,0-0.1-0.1-0.1c0.1,0,0.1-0.1,0.2-0.1c0,0,0,0,0-0.1l0,0l0,0h0.1c0,0,0,0,0-0.1c0,0,0,0,0.1,0v-0.1l0,0l0,0
				c0,0,0,0,0-0.1l0,0c0,0,0,0,0-0.1l0,0h0.1c0.1-0.1,0.1-0.2,0.2-0.3c0,0,0,0,0.1,0v-0.1l0,0l0,0l0,0c0,0,0.1,0,0.1-0.1v-0.1
				c0,0,0,0,0.1,0c0-0.1,0-0.1,0-0.2c0.1,0,0.1,0,0.1-0.1l0,0l0,0l0,0H85l0,0l0,0c0,0,0,0,0-0.1h0.1c0-0.2,0.1-0.4,0.1-0.6
				c0.1,0,0.2-0.1,0.2-0.1l0,0c0-0.1,0-0.1,0-0.2v-0.1c0,0,0,0,0.1,0v-0.1l0.1-0.1l0,0l0,0l0,0c0.1-0.2,0.2-0.4,0.3-0.5H86
				c0-0.1,0-0.1,0.1-0.2c0,0,0,0-0.1,0l0,0c0,0,0,0,0.1,0l0,0c0-0.1,0-0.1,0.1-0.2c0.1,0,0.1,0,0.2,0c0-0.1,0-0.1,0.1-0.2
				c0,0,0.1-0.1,0.2-0.1v-0.1c0,0,0.1,0,0.1-0.1c0.1-0.2,0-0.3,0-0.5h0.1c0.1-0.1,0-0.3,0-0.4l0,0v-0.1H87c0-0.1,0-0.2,0.1-0.3
				c0,0,0,0-0.1,0v-0.1c0,0,0,0,0.1,0v-0.1l0,0c0,0.1,0,0.2,0,0.2s0,0,0.1,0c0,0,0-0.1,0-0.2l0,0V72c0,0,0,0,0.1,0v-0.1
				c0,0,0,0,0.1,0c0-0.1,0-0.2,0.1-0.2h0.1c0-0.1,0-0.1,0-0.2c0.1,0,0.1,0,0.1,0s0,0,0.1,0v-0.1l0,0c0,0,0.1,0,0.1,0.1
				c0-0.1,0-0.1,0-0.2H88c0-0.1,0-0.1,0.1-0.2c0,0,0,0,0.1,0V71c0,0,0,0,0.1,0c0,0,0,0,0-0.1l0,0c0,0,0-0.1,0-0.2l0,0l0,0l0,0
				c0,0,0,0,0.1,0l0,0c0.1,0,0.1,0,0.2,0v-0.1l0,0c0,0,0,0,0-0.1c0.3-0.1,0.1-0.1,0.2-0.2c0,0,0,0,0.1,0c0.1-0.1,0.1-0.1,0.1-0.2
				l0,0l0,0h0.1V70H89c0-0.2,0.1-0.4,0.1-0.6l0,0c0,0,0,0,0.1,0c0-0.5-0.4-0.7-0.4-1.2h-0.1c0,0,0,0,0-0.1c0,0,0,0,0-0.1h0.1l0,0
				c0,0,0,0,0.1,0c0-0.1,0-0.1,0.1-0.2c0,0,0,0,0.1,0c0,0,0,0,0-0.1c0,0,0,0,0.1,0l0,0l0,0v-0.1c0,0,0,0,0.1-0.1c0,0,0,0,0-0.1
				c0,0,0,0-0.1,0l0.1-0.1h0.1l0,0h0.1l0,0l0,0c0,0,0,0,0,0.1c0.2,0,0.1-0.1,0.3-0.1c0-0.1,0-0.1,0.1-0.1c0,0,0,0,0.1,0
				s0.2-0.1,0.3-0.1V67l0,0l0,0h0.1l0,0l0,0v-0.1h0.1v-0.1c0,0,0.1,0,0.1-0.1l0,0c0,0,0,0,0.1,0c0,0,0,0,0-0.1c0,0,0.1-0.1,0.2-0.1
				c0-0.1,0-0.1,0.1-0.2l0,0v-0.1l0,0c0.1,0,0.2-0.1,0.2-0.1h0.1V66l0.1-0.1l0,0c0,0,0.1,0,0.1-0.1c0,0,0,0,0.1,0c0,0,0,0,0-0.1
				c0,0,0,0,0.1,0c0.1-0.1-0.1-0.1-0.1-0.1s0,0,0-0.1c0.1,0,0.1,0,0.2,0c0-0.1,0-0.1,0-0.1l0,0h0.1l0,0l0,0c0-0.1,0.1-0.2,0.2-0.3
				c0,0,0,0,0.1,0c0-0.1,0-0.1,0-0.2h0.1c0-0.1,0-0.1,0-0.1s0.1,0,0.1-0.1v-0.1c0,0,0.1,0,0.1-0.1v-0.1c0,0,0,0,0.1,0
				c0-0.1,0-0.1,0.1-0.2c0,0,0,0,0.1,0c0-0.1,0-0.1,0-0.2c0,0,0,0,0.1,0c0-0.1,0-0.1,0-0.2H93c0-0.1,0-0.1,0-0.2
				c0.1-0.2,0.1-0.4,0.1-0.7h0.1c0.1-0.2,0.1-0.3,0.2-0.5c0-0.1-0.1-0.1-0.1-0.2c0,0,0.1,0,0.1-0.1s0-0.2,0-0.3c0,0,0,0,0.1,0
				c0-0.1,0-0.2,0-0.3c0,0-0.1,0-0.1,0.1c0-0.1,0-0.1,0-0.2c0,0,0,0-0.1,0c0-0.1,0.1-0.2,0.1-0.2v-0.5c0,0,0,0-0.1,0
				c0-0.1,0-0.2,0-0.3c0,0,0,0-0.1,0c0-0.1,0-0.1,0-0.2c0,0,0,0-0.1,0c0-0.1,0-0.1,0-0.2c0,0,0,0-0.1,0c0-0.2,0-0.3,0.1-0.5v-0.1
				c0,0,0,0-0.1,0c0-0.1,0.1-0.1,0.1-0.1c0-0.1,0-0.2,0-0.3c0-0.1,0-0.1,0.1-0.2l0,0c0-0.1,0.1-0.2,0.1-0.3c0,0,0,0,0.1,0v0.1
				c0.1,0,0.1,0,0.1-0.1c0,0,0,0,0.1,0c0-0.1,0-0.1-0.1-0.1c0,0,0,0,0-0.1c0.1-0.1,0.1,0.1,0.2-0.1c-0.1,0,0,0-0.1-0.1
				c0.1,0,0.1,0,0.2,0c0-0.1,0-0.1,0-0.2c0,0,0,0,0.1,0c0,0,0,0,0-0.1c0.1,0,0.1,0,0.2,0c0-0.1,0-0.1,0-0.2l0,0c0.1,0,0.1,0,0.2,0
				c0-0.1,0-0.1,0.1-0.2c0.1,0,0.1,0,0.2,0c0-0.1,0-0.1,0.1-0.2c0,0,0,0,0.1,0c0,0,0,0,0-0.1c0.1-0.2,0.3-0.5,0.4-0.7
				c0-0.1,0-0.1,0-0.2l0,0l0,0v-0.1c0,0,0,0,0.1,0c0-0.1,0-0.1,0-0.2l0,0v-0.1h0.1c0-0.2,0-0.2,0-0.3h0.1
				C96.2,57.2,96.2,57.2,96.1,57.1z M96,57.1L96,57.1L96,57.1L96,57.1L96,57.1z M96,57L96,57C96,57,96.1,57,96,57L96,57z M64.9,61
				L64.9,61C64.9,61.1,64.9,61.1,64.9,61C64.9,61.1,64.9,61,64.9,61L64.9,61z M89.6,54.1L89.6,54.1L89.6,54.1L89.6,54.1L89.6,54.1z
				 M89.2,54.3L89.2,54.3L89.2,54.3L89.2,54.3z M88.7,54.4c0.1,0,0.1,0,0.2,0v0.1C88.8,54.5,88.7,54.5,88.7,54.4
				C88.7,54.5,88.7,54.4,88.7,54.4z M85.5,54.1L85.5,54.1C85.5,54.2,85.6,54.2,85.5,54.1L85.5,54.1c0,0.1-0.2,0.2-0.3,0.2v-0.1
				C85.3,54.2,85.4,54.1,85.5,54.1z M84.8,53.9C84.8,53.9,84.8,53.8,84.8,53.9C84.8,53.8,84.8,53.8,84.8,53.9
				C84.8,53.8,84.8,53.8,84.8,53.9z M84.7,53.7C84.7,53.7,84.7,53.8,84.7,53.7C84.7,53.8,84.6,53.8,84.7,53.7
				C84.6,53.8,84.6,53.8,84.7,53.7c-0.1,0-0.2-0.1-0.3-0.1v-0.1c0,0,0,0,0.1,0c0,0,0,0,0,0.1C84.5,53.6,84.6,53.7,84.7,53.7z
				 M84.1,53.1c0.1,0.1,0.1,0.2,0.2,0.3c0,0,0,0,0.1,0v0.1l0,0c-0.1-0.1-0.2-0.2-0.4-0.3c0-0.1,0-0.1,0-0.1l0,0v0.1
				C84,53.1,84,53.1,84.1,53.1z M81.6,51.5c0.2,0.1,0.3,0.1,0.5,0.2c0,0,0,0,0,0.1c0,0,0,0-0.1,0c0,0,0,0,0-0.1c-0.1,0-0.1,0-0.2,0
				l0,0c0,0,0,0,0-0.1h-0.1C81.7,51.6,81.7,51.6,81.6,51.5C81.6,51.6,81.6,51.6,81.6,51.5L81.6,51.5C81.7,51.5,81.6,51.4,81.6,51.5z
				 M81.4,51.5L81.4,51.5L81.4,51.5C81.3,51.6,81.4,51.6,81.4,51.5C81.3,51.6,81.3,51.5,81.4,51.5C81.3,51.5,81.4,51.5,81.4,51.5z
				 M81.2,51.4C81.2,51.4,81.3,51.4,81.2,51.4C81.3,51.4,81.3,51.5,81.2,51.4C81.2,51.5,81.2,51.5,81.2,51.4
				C81.2,51.5,81.2,51.4,81.2,51.4z M65.2,62L65.2,62C65.2,61.8,65.3,61.9,65.2,62C65.3,61.9,65.3,61.9,65.2,62
				C65.3,62,65.3,62,65.2,62z M88.2,73.8L88.2,73.8c0-0.1,0-0.1,0-0.1l0,0V73.8z"/>
		</g>
		<g>
			<path class="st0" d="M86.7,54C86.7,54,86.7,53.9,86.7,54c0-0.1-0.1-0.1-0.2-0.2c0,0,0,0.1-0.1,0.1C86.5,53.9,86.6,54,86.7,54z"/>
		</g>
		<g>
			<path class="st0" d="M64.2,56.8C64.2,56.9,64.2,56.9,64.2,56.8C64.3,56.9,64.3,56.9,64.2,56.8C64.3,56.8,64.3,56.7,64.2,56.8
				L64.2,56.8C64.2,56.8,64.2,56.8,64.2,56.8z"/>
		</g>
		<g>
			<path class="st0" d="M65.9,59.5L65.9,59.5c-0.1-0.1-0.1-0.1-0.2-0.1C65.8,59.5,65.8,59.4,65.9,59.5z"/>
		</g>
		<g>
			<path class="st0" d="M65.7,59.6L65.7,59.6L65.7,59.6L65.7,59.6C65.7,59.5,65.7,59.5,65.7,59.6z"/>
		</g>
		<g>
			<path class="st0" d="M65.5,61.5C65.5,61.4,65.5,61.5,65.5,61.5C65.5,61.4,65.5,61.5,65.5,61.5L65.5,61.5z"/>
		</g>
		<g>
			<path class="st0" d="M65.6,61.6L65.6,61.6C65.6,61.7,65.6,61.7,65.6,61.6C65.6,61.6,65.6,61.7,65.6,61.6z"/>
		</g>
		<g>
			<path class="st0" d="M66.1,62.7c0-0.1,0-0.1,0-0.2c0,0,0,0-0.1,0C66,62.6,66,62.7,66.1,62.7L66.1,62.7z"/>
		</g>
		<g>
			<path class="st0" d="M66.1,62.8L66.1,62.8C66.1,62.7,66.1,62.7,66.1,62.8c-0.1,0.1,0,0.1,0,0.3C66.3,63.1,66.3,62.9,66.1,62.8z"
				/>
		</g>
		<g>
			<path class="st0" d="M86.6,77.7L86.6,77.7c0-0.1-0.1-0.1-0.1-0.1C86.6,77.7,86.5,77.7,86.6,77.7z"/>
		</g>
	</g>
	<g>
		<path class="st0" d="M80.5,93.3c-0.8,0-1.6,0-2.4-0.1c-7.3-0.6-13.8-3.9-18.5-9.3c-4.7-5.4-6.9-12.2-6.3-19.2
			c1.3-14.4,14.5-25.2,29.5-23.9c15,1.3,26.1,14,24.8,28.5c-0.6,7-4,13.3-9.6,17.8C93,91.1,86.9,93.3,80.5,93.3z M80.4,42.6
			c-13,0-24.1,9.6-25.2,22.3c-0.6,6.5,1.5,12.8,5.8,17.8c4.4,5,10.5,8,17.2,8.6s13.3-1.4,18.5-5.6c5.2-4.2,8.3-10.1,8.9-16.6
			c1.2-13.4-9.1-25.3-23-26.4C81.9,42.6,81.2,42.6,80.4,42.6z"/>
	</g>
</g>
</svg>
